job = ( "m3c" );
simulation : 
{
  temperature = 298.0;
  max-theta = 10.0;
  max-step = 0.340464;
  adjust-max-step = 1000;
  acceptance-ratio = 0.1;
  geometry = "m3c.xyz";
  periodic : 
  {
    dimension = 24.6;
  };
};
method : 
{
  parameters = "m3c.prm";
  vdw-cutoff = 10.0;
  coulomb-cutoff = 12.0;
  steps = 100000;
};
setup : 
{
  devices = 1;
  chains = 2;
};
io:{
  save-geometry = 10000;
  save-energy = 100;
  seed = 986508876;
  output = "ref-acceptance-ratio"
}
