job = ( "m3c" );
simulation : 
{
  temperature = 298.0;
  max-theta = 10.0;
  max-step = 0.340464;
  adjust-max-theta = 1000;
  geometry = "m3c.xyz";
  periodic : 
  {
    dimension = 24.6;
  };
};
method : 
{
  parameters = "m3c.prm";
  vdw-cutoff = 10.0;
  coulomb-cutoff = 12.0;
  steps = 20000;
};
io:{
  save-geometry = 1000;
  seed = 986508876;
  output = "ref-adjust-theta"
}
