
 Primary working directories    : /scr/jonas
 Secondary working directories  : /scr/jonas
 Wavefunction directory         : /home/jonas/wfu/
 Main file repository           : /scr/jonas/

 SHA1      : 5b1d074a25eef39b04831e9568c159f1d25e52e7
 ARCHNAME  : Linux/x86_64
 FC        : /opt/intel_2011p10/composer_xe_2011_sp1.10.319/bin/intel64/ifort
 FCVERSION : 12.1.4
 BLASLIB   : -L/opt/intel_2011p10/composer_xe_2011_sp1.10.319/mkl/lib/intel64 -lmkl_intel_ilp64 -lmkl_sequential -lmkl_core
 id        : rmata

 Nodes     nprocs
 loki05       1

 Using customized tuning parameters: mindgm=1; mindgv=20; mindgc=4; mindgr=1; noblas=0; minvec=7
 default implementation of scratch files=df  

 memory,400,m
 
 geomtyp=xyz
 geometry
 6
 C,1.999092326791500e-01,6.338883805358000e-01,2.443579716274600e-01
 H,1.411351461641300e-01,1.306834709357100e-01,1.191597710588910e+00
 H,1.052332452711650e+00,4.197927276028900e-01,-3.706794386911901e-01
 H,-7.240963830358301e-01,8.552151276671500e-01,-2.528924620571500e-01
 F,-3.528274745770800e-01,-1.341102090616240e+00,-5.058597725602700e-01
 Cl,6.966950260579600e-01,2.528448383874640e+00,8.912279910921800e-01
 endg
 set,charge=-1
 basis=def2-tzvp
 
 {grid;gridthr,1e-7,0,0;radial,log;angular,lebedev}
 
 goto labelend
 labelmethod
 {ks,b3lyp,shiftc=-0.3;disp;grid;gridthr,1e-6,0,0;radial,log;angular,lebedev}    ! energy with default grid
 {ks,b3lyp,maxit=0;grid;gridthr,1e-7,0,0;radial,log;angular,lebedev}
 labelend
 
 {user,energy=2}

 Variables initialized (801), CPU time= 0.01 sec
 Commands  initialized (611), CPU time= 0.01 sec, 523 directives.
 Default parameters read. Elapsed time= 0.08 sec

 Checking input...
 Passed
1


                                         ***  PROGRAM SYSTEM MOLPRO  ***
                         Copyright, University College Cardiff Consultants Limited, 2008

                                    Version 2099.9 linked 4 Aug 2014 17:58:03 


 **********************************************************************************************************************************
 LABEL *                                                                                 
 Linux-3.2.0-67-generic/loki05(x86_64) 64 bit serial version                             DATE: 02-Jun-15          TIME: 12:18:08  
 **********************************************************************************************************************************

 SHA1:             5b1d074a25eef39b04831e9568c159f1d25e52e7

 Develop Directory: /home/jonas/software/molpro/pmc-pipe

 Included files:    c_pipemanager.c user.F
 **********************************************************************************************************************************
 SETTING GEOMTYP        =    XYZ
 SETTING CHARGE         =        -1.00000000                                  

 Variable memory set to  400000000 words,  buffer space   230000 words

 SETTING BASIS          =    DEF2-TZVP


 Recomputing integrals since basis changed


 Using spherical harmonics

 Library entry C      S def2-TZVP            selected for orbital group  1
 Library entry C      P def2-TZVP            selected for orbital group  1
 Library entry C      D def2-TZVP            selected for orbital group  1
 Library entry C      F def2-TZVP            selected for orbital group  1
 Library entry H      S def2-TZVP            selected for orbital group  2
 Library entry H      P def2-TZVP            selected for orbital group  2
 Library entry F      S def2-TZVP            selected for orbital group  3
 Library entry F      P def2-TZVP            selected for orbital group  3
 Library entry F      D def2-TZVP            selected for orbital group  3
 Library entry F      F def2-TZVP            selected for orbital group  3
 Library entry CL     S def2-TZVP            selected for orbital group  4
 Library entry CL     P def2-TZVP            selected for orbital group  4
 Library entry CL     D def2-TZVP            selected for orbital group  4
 Library entry CL     F def2-TZVP            selected for orbital group  4

1PROGRAM * SEWARD (Integral evaluation for generally contracted gaussian basis sets)     Author: Roland Lindh, 1990

 Geometry written to block  1 of record 700


 Point group  C1  



 ATOMIC COORDINATES

 NR  ATOM    CHARGE       X              Y              Z

   1  C       6.00    0.377773701    1.197875437    0.461769644
   2  H       1.00    0.266706774    0.246955970    2.251793332
   3  H       1.00    1.988620135    0.793293287   -0.700482622
   4  H       1.00   -1.368343857    1.616122375   -0.477897494
   5  F       9.00   -0.666747299   -2.534315666   -0.955936431
   6  CL     17.00    1.316562796    4.778074983    1.684176824

 Bond lengths in Bohr (Angstrom)

 1-2  2.029967610  1-3  2.027151519  1-4  2.026531854  1-6  3.897875455
     ( 1.074212594)     ( 1.072722383)     ( 1.072394471)     ( 2.062666855)

 Bond angles

  2-1-3  117.10085807   2-1-4  117.28463922   2-1-6   99.60766857   3-1-4  117.38855492

  3-1-6   99.88876045   4-1-6   99.40253753

 NUCLEAR CHARGE:                   35
 NUMBER OF PRIMITIVE AOS:         195
 NUMBER OF SYMMETRY AOS:          179
 NUMBER OF CONTRACTIONS:          117   ( 117A   )
 NUMBER OF CORE ORBITALS:           7   (   7A   )
 NUMBER OF VALENCE ORBITALS:       15   (  15A   )


 NUCLEAR REPULSION ENERGY   85.25572595


 Eigenvalues of metric

         1 0.139E-02 0.573E-02 0.576E-02 0.786E-02 0.131E-01 0.198E-01 0.208E-01 0.209E-01


 Contracted 2-electron integrals neglected if value below      1.0D-11
 AO integral compression algorithm  1   Integral accuracy      1.0D-11

     85.721 MB (compressed) written to integral file ( 37.4%)


 NUMBER OF SORTED TWO-ELECTRON INTEGRALS:   23829156.     BUFFER LENGTH:  32768
 NUMBER OF SEGMENTS:   2  SEGMENT LENGTH:   15997996      RECORD LENGTH: 524288

 Memory used in sort:      16.56 MW

 SORT1 READ    28760452. AND WROTE    18214375. INTEGRALS IN     53 RECORDS. CPU TIME:     0.50 SEC, REAL TIME:     6.21 SEC
 SORT2 READ    18214375. AND WROTE    23829156. INTEGRALS IN    327 RECORDS. CPU TIME:     0.58 SEC, REAL TIME:     7.27 SEC

 FILE SIZES:   FILE 1:    93.9 MBYTE,  FILE 4:   222.3 MBYTE,   TOTAL:    316.2 MBYTE

 OPERATOR DM      FOR CENTER  0  COORDINATES:    0.000000    0.000000    0.000000


 **********************************************************************************************************************************
 DATASETS  * FILE   NREC   LENGTH (MB)   RECORD NAMES
              1      19       76.98       500      610      700      900      950      970     1000      129      960     1100   
                                          VAR    BASINP    GEOM    SYMINP    ZMAT    AOBASIS   BASIS     P2S    ABASIS      S 
                                         1400     1410     1200     1210     1080     1600     1650     1300     1700   
                                           T        V       H0       H01     AOSYM     SMH    MOLCAS    ERIS     OPER   

 PROGRAMS   *        TOTAL       INT
 CPU TIMES  *         3.55      3.39
 REAL TIME  *        27.09 SEC
 DISK USED  *       316.56 MB      
 **********************************************************************************************************************************

 Create new grid at  1800.2
 Integration target accuracy:  0.10E-06
 Angular quadrature scheme: LEBEDEV      Threshold: 0.00E+00     Crowding factor:    0.00
 Minimum L=  0  0  0  0     Maximum L= 53 53 53 53
 Radial quadrature scheme: LOG          mr= 3     Scale=  1.00     Minimum quadrature orders:  20  25  25  30     Threshold: 0.00E+00
 Quadrature type=1     Voronoi partitioning: mmu= 10     Voronoi weight flags   2
 Use symmetry=F     Cache=T


 **********************************************************************************************************************************
 DATASETS  * FILE   NREC   LENGTH (MB)   RECORD NAMES
              1      19       76.98       500      610      700      900      950      970     1000      129      960     1100   
                                          VAR    BASINP    GEOM    SYMINP    ZMAT    AOBASIS   BASIS     P2S    ABASIS      S 
                                         1400     1410     1200     1210     1080     1600     1650     1300     1700   
                                           T        V       H0       H01     AOSYM     SMH    MOLCAS    ERIS     OPER   

              2       4        0.36       700     1000      520     1800   
                                         GEOM     BASIS   MCVARS    GRID   

 PROGRAMS   *        TOTAL      GRID       INT
 CPU TIMES  *         3.55      0.00      3.39
 REAL TIME  *        27.09 SEC
 DISK USED  *       316.56 MB      
 **********************************************************************************************************************************


 *** Long output written to logfile /scr/jonas/ref-multif-7-fep/pipeB3.log ***


 GLOBAL ERROR fehler on processor   0                                         
