memory,400,m

nosym
geomtyp=xyz
geometry
6

C	2.387748062045700e-01	7.327034987033900e-01	3.039584256817100e-01
H	1.701152080016600e-01	1.722645150585700e-01	1.224215385459570e+00
H	1.052107793337580e+00	4.116636529609100e-01	-3.254476015341300e-01
H	-6.970508981067500e-01	8.056386748293101e-01	-2.218663590785400e-01
F	-4.187348463373100e-01	-1.405862764189620e+00	-6.227191354079501e-01
Cl	6.679359369002000e-01	2.510518422637400e+00	8.396112848792902e-01


endg
set,charge=-1
basis=6-31G

{grid;gridthr,1e-7,0,0;radial,log;angular,lebedev}

goto labelend
labelmethod
{ks,b3lyp,shiftc=-0.3;disp;grid;gridthr,1e-6,0,0;radial,log;angular,lebedev} ! energy with default grid
{ks,b3lyp,maxit=0;grid;gridthr,1e-7,0,0;radial,log;angular,lebedev;start,2100.2}
labelend

{user,energy=2,fdread=7,fdwrite=18}
