
 Primary working directories    : /scr/jonas
 Secondary working directories  : /scr/jonas
 Wavefunction directory         : /home/jonas/wfu/
 Main file repository           : /scr/jonas/

 SHA1      : 5b1d074a25eef39b04831e9568c159f1d25e52e7
 ARCHNAME  : Linux/x86_64
 FC        : /opt/intel_2011p10/composer_xe_2011_sp1.10.319/bin/intel64/ifort
 FCVERSION : 12.1.4
 BLASLIB   : -L/opt/intel_2011p10/composer_xe_2011_sp1.10.319/mkl/lib/intel64 -lmkl_intel_ilp64 -lmkl_sequential -lmkl_core
 id        : rmata

 Nodes     nprocs
 loki05       1

 Using customized tuning parameters: mindgm=1; mindgv=20; mindgc=4; mindgr=1; noblas=0; minvec=7
 default implementation of scratch files=df  

 memory,400,m
 
 geomtyp=xyz
 geometry
 6
 C,1.999092326791500e-01,6.338883805358000e-01,2.443579716274600e-01
 H,1.411351461641300e-01,1.306834709357100e-01,1.191597710588910e+00
 H,1.052332452711650e+00,4.197927276028900e-01,-3.706794386911901e-01
 H,-7.240963830358301e-01,8.552151276671500e-01,-2.528924620571500e-01
 F,-3.528274745770800e-01,-1.341102090616240e+00,-5.058597725602700e-01
 Cl,6.966950260579600e-01,2.528448383874640e+00,8.912279910921800e-01
 endg
 set,charge=-1
 lattice,infile=lattice.lat
 
 basis=def2-tzvp
 
 {ks,b3lyp,shiftc=-0.3;disp}                                                     ! energy with default grid
 show, energy(1)
 
 {grid;gridthr,1e-7,0,0;radial,log;angular,lebedev}
 {ks,b3lyp,maxit=0}
 
 user

 Variables initialized (801), CPU time= 0.01 sec
 Commands  initialized (611), CPU time= 0.01 sec, 523 directives.
 Default parameters read. Elapsed time= 0.07 sec

 Checking input...
 Passed
1


                                         ***  PROGRAM SYSTEM MOLPRO  ***
                         Copyright, University College Cardiff Consultants Limited, 2008

                                    Version 2099.9 linked 1 Aug 2014 19:19:19 


 **********************************************************************************************************************************
 LABEL *                                                                                 
 Linux-3.2.0-67-generic/loki05(x86_64) 64 bit serial version                             DATE: 02-Jun-15          TIME: 12:19:30  
 **********************************************************************************************************************************

 SHA1:             5b1d074a25eef39b04831e9568c159f1d25e52e7

 Develop Directory: /home/jonas/software/molpro/molpro-dft-grid

 Included files:    user.F
 **********************************************************************************************************************************
 SETTING GEOMTYP        =    XYZ
 SETTING CHARGE         =        -1.00000000                                  

 Variable memory set to  400000000 words,  buffer space   230000 words


 Read   1494 lattice point charges from file lattice.lat
 
 SETTING BASIS          =    DEF2-TZVP


 Recomputing integrals since basis changed


 Using spherical harmonics

 Library entry C      S def2-TZVP            selected for orbital group  1
 Library entry C      P def2-TZVP            selected for orbital group  1
 Library entry C      D def2-TZVP            selected for orbital group  1
 Library entry C      F def2-TZVP            selected for orbital group  1
 Library entry H      S def2-TZVP            selected for orbital group  2
 Library entry H      P def2-TZVP            selected for orbital group  2
 Library entry F      S def2-TZVP            selected for orbital group  3
 Library entry F      P def2-TZVP            selected for orbital group  3
 Library entry F      D def2-TZVP            selected for orbital group  3
 Library entry F      F def2-TZVP            selected for orbital group  3
 Library entry CL     S def2-TZVP            selected for orbital group  4
 Library entry CL     P def2-TZVP            selected for orbital group  4
 Library entry CL     D def2-TZVP            selected for orbital group  4
 Library entry CL     F def2-TZVP            selected for orbital group  4

1PROGRAM * SEWARD (Integral evaluation for generally contracted gaussian basis sets)     Author: Roland Lindh, 1990

 Geometry written to block  1 of record 700


 Point group  C1  



 ATOMIC COORDINATES

 NR  ATOM    CHARGE       X              Y              Z

   1  C       6.00    0.377773701    1.197875437    0.461769644
   2  H       1.00    0.266706774    0.246955970    2.251793332
   3  H       1.00    1.988620135    0.793293287   -0.700482622
   4  H       1.00   -1.368343857    1.616122375   -0.477897494
   5  F       9.00   -0.666747299   -2.534315666   -0.955936431
   6  CL     17.00    1.316562796    4.778074983    1.684176824

 Bond lengths in Bohr (Angstrom)

 1-2  2.029967610  1-3  2.027151519  1-4  2.026531854  1-6  3.897875455
     ( 1.074212594)     ( 1.072722383)     ( 1.072394471)     ( 2.062666855)

 Bond angles

  2-1-3  117.10085807   2-1-4  117.28463922   2-1-6   99.60766857   3-1-4  117.38855492

  3-1-6   99.88876045   4-1-6   99.40253753

 NUCLEAR CHARGE:                   35
 NUMBER OF PRIMITIVE AOS:         195
 NUMBER OF SYMMETRY AOS:          179
 NUMBER OF CONTRACTIONS:          117   ( 117A   )
 NUMBER OF CORE ORBITALS:           7   (   7A   )
 NUMBER OF VALENCE ORBITALS:       15   (  15A   )


 NUCLEAR REPULSION ENERGY   86.29322467


 Eigenvalues of metric

         1 0.139E-02 0.573E-02 0.576E-02 0.786E-02 0.131E-01 0.198E-01 0.208E-01 0.209E-01


 Contracted 2-electron integrals neglected if value below      1.0D-11
 AO integral compression algorithm  1   Integral accuracy      1.0D-11

     85.721 MB (compressed) written to integral file ( 37.4%)


 NUMBER OF SORTED TWO-ELECTRON INTEGRALS:   23829156.     BUFFER LENGTH:  32768
 NUMBER OF SEGMENTS:   2  SEGMENT LENGTH:   15997996      RECORD LENGTH: 524288

 Memory used in sort:      16.56 MW

 SORT1 READ    28760452. AND WROTE    18214375. INTEGRALS IN     53 RECORDS. CPU TIME:     0.37 SEC, REAL TIME:     0.63 SEC
 SORT2 READ    18214375. AND WROTE    23829156. INTEGRALS IN    327 RECORDS. CPU TIME:     0.51 SEC, REAL TIME:     0.64 SEC

 FILE SIZES:   FILE 1:    93.9 MBYTE,  FILE 4:   222.3 MBYTE,   TOTAL:    316.3 MBYTE

 OPERATOR DM      FOR CENTER  0  COORDINATES:    0.000000    0.000000    0.000000

 Lattice contribution by fast summation (Bellchambers and Manby 2008)
 Number of lattice points:   1494 processed in     0.23 secs


 **********************************************************************************************************************************
 DATASETS  * FILE   NREC   LENGTH (MB)   RECORD NAMES
              1      19       77.07       500      610      700      900      950      970     1000      129      960     1100   
                                          VAR    BASINP    GEOM    SYMINP    ZMAT    AOBASIS   BASIS     P2S    ABASIS      S 
                                         1400     1410     1200     1210     1080     1600     1650     1300     1700   
                                           T        V       H0       H01     AOSYM     SMH    MOLCAS    ERIS     OPER   

 PROGRAMS   *        TOTAL       INT
 CPU TIMES  *         3.58      3.47
 REAL TIME  *         4.25 SEC
 DISK USED  *       316.71 MB      
 **********************************************************************************************************************************

 Density functional group B3LYP=B88+DIRAC+LYP+VWN5
 Functional: B88(Automatically generated (new) B88)                            Gradient terms: 1
 Functional: DIRAC(Automatically generated (new) DIRAC)                        Gradient terms: 0
 Functional: LYP(Automatically generated (new) LYP)                            Gradient terms: 1
 Functional: VWN5(Automatically generated (new) VWN5)                          Gradient terms: 0

 dispersion correction activated
 Density functional: B3LYP   
 

 Exact exchange will be calculated, factor:  0.2000

 Functional: B88                       Factor:  0.7200
 Functional: DIRAC                     Factor:  0.0800
 Functional: LYP                       Factor:  0.8100
 Functional: VWN5                      Factor:  0.1900
 
 Use grid at  1800.2
 

 Exact exchange will be calculated, factor:  0.2000

 Functional: B88                       Factor:  0.7200
 Functional: DIRAC                     Factor:  0.0800
 Functional: LYP                       Factor:  0.8100
 Functional: VWN5                      Factor:  0.1900
 
 Generated new metagrid on record  1800.2 with target accuracy 1.0D-06 and 28972 points in CPU time    0.3
 Computed new grid on record 1800.1 in CPU time    0.4
   97125 words reserved for DFT integration

 PROGRAM * RKS-SCF (Restricted closed shell Kohn-Sham)     Authors: W. Meyer, H.-J. Werner, P.J. Knowles, 1993

 NUMBER OF ELECTRONS:      18+   18-    SPACE SYMMETRY=1    SPIN SYMMETRY: Singlet 
 CONVERGENCE THRESHOLDS:    1.00E-05 (Density)    1.00E-06 (Energy)
 MAX. NUMBER OF ITERATIONS:       60
 INTERPOLATION TYPE:            DIIS
 INTERPOLATION STEPS:              2 (START)      1 (STEP)
 LEVEL SHIFTS:                 -0.30 (CLOSED)  0.00 (OPEN) 



 Use fine grid record 1800.2 for energy threshold  1.0D-06
 Orbital guess generated from atomic densities. Full valence occupancy:   18

 Molecular orbital dump at record        2100.2

 Initial occupancy:  18

 ITERATION    DDIFF          GRAD             ENERGY        2-EL.EN.            DIPOLE MOMENTS         DIIS   ORB.
    1      0.000D+00      0.000D+00      -599.81223432    726.642602    0.30364    1.24744    0.47250    0    start
    2      0.000D+00      0.103D-01      -599.82343630    709.337004   -0.16647   -0.48936   -0.15355    1    diag
    3      0.101D-01      0.123D-01      -599.96842518    715.832943   -0.01586    0.06159    0.04694    2    diag
    4      0.449D-02      0.103D-02      -599.97011947    716.294939   -0.03400   -0.00167    0.02262    3    diag
    5      0.685D-03      0.438D-03      -599.97050158    716.399011   -0.05542   -0.08096   -0.00583    4    diag
    6      0.391D-03      0.135D-03      -599.97057120    716.356496   -0.06201   -0.10492   -0.01471    5    diag
    7      0.196D-03      0.487D-04      -599.97058487    716.379484   -0.06746   -0.12496   -0.02195    6    diag
    8      0.968D-04      0.133D-04      -599.97058629    716.374440   -0.06910   -0.13096   -0.02415    7    diag
    9      0.345D-04      0.411D-05      -599.97058638    716.375928   -0.06926   -0.13157   -0.02438    8    diag
   10      0.773D-05      0.166D-05      -599.97058639    716.376245   -0.06930   -0.13168   -0.02442    0    orth

 Dispersion correction
 - - - - - - - - - - - 
  _________________________________
                                   
 |         DFTD3 V1.3 Rev 1        |
 | S.Grimme, University Muenster   |
 | Fri Jul  2 12:48:21 CEST 2010   |
  _________________________________
 
 Please cite DFT-D3 work done with this code as:
 S. Grimme, J. Antony, S. Ehrlich and H. Krieg,
 J. Chem. Phys, 132 (2010), 154104.
 For DFT-D2 the reference is
 S. Grimme, J. Comput. Chem., 27 (2006), 1787-1799
 
 C6 coefficients used:
                     2  C6 for element                      1
 Z=  1 CN=   0.912     C6(AA)=    3.03
 Z=  1 CN=   0.000     C6(AA)=    7.59
                     5  C6 for element                      6
 Z=  6 CN=   0.000     C6(AA)=   49.11
 Z=  6 CN=   0.987     C6(AA)=   43.25
 Z=  6 CN=   1.998     C6(AA)=   29.36
 Z=  6 CN=   2.999     C6(AA)=   25.78
 Z=  6 CN=   3.984     C6(AA)=   18.21
                     2  C6 for element                      9
 Z=  9 CN=   0.000     C6(AA)=    9.69
 Z=  9 CN=   0.998     C6(AA)=    7.13
                     2  C6 for element                     17
 Z= 17 CN=   0.000     C6(AA)=   92.35
 Z= 17 CN=   0.997     C6(AA)=   90.40

 #           XYZ [au]               R0(AA) [Ang.]   CN       C6(AA)     C8(AA)   C10(AA) [au]
  1   0.37777   1.19788   0.46177   c   1.455  3.947        18.4       531.8     18840.2
  2   0.26671   0.24696   2.25179   h   1.091  1.005         3.1        37.3       552.8
  3   1.98862   0.79329  -0.70048   h   1.091  1.005         3.1        37.3       552.8
  4  -1.36834   1.61612  -0.47790   h   1.091  1.005         3.1        37.3       552.8
  5  -0.66675  -2.53432  -0.95594   f   1.150  0.085         9.6       164.1      3440.4
  6   1.31656   4.77807   1.68418   cl  1.552  0.907        90.5      3774.7    192932.0

 molecular C6(AA) [au] =       486.49

           DFT-D V3
 DF b3-lyp                                            
 parameters
 s6       :    1.0000
 s8       :    1.7030
 rs6      :    1.2610
 alpha6   :   14.0000
 alpha8   :   16.0000
 k1-k3    :   16.0000    1.3333   -4.0000
 
 Edisp /kcal,au:    -1.9702 -0.00313976

 E6    /kcal :    -0.1138
 E8    /kcal :    -1.8564
 % E8        : 94.22
 normal termination of dftd3

 RKS STATE 1.1 ENERGY+DISP     -599.97372615

 Final occupancy:  18

 !RKS STATE 1.1 Energy               -599.973726148033
 Nuclear energy                        86.29322467
 One-electron energy                -1007.88638864
 Two-electron energy                  358.18812254
 SCF exchange energy                  -44.00679938     Factor= 0.2000
 Density functional                   -36.56554496     B88=-44.09959728 DIRAC=-40.38686431 LYP= -1.34896752 VWN5= -2.58011619
 Virial quotient                       -1.00177308
 !RKS STATE 1.1 Dipole moment          -0.06929510    -0.13167949    -0.02442091
 Dipole moment /Debye                  -0.17611905    -0.33467395    -0.06206769

 Orbital energies:

         1.1          2.1          3.1          4.1          5.1          6.1          7.1          8.1          9.1         10.1
   -101.327563   -24.320284   -10.073596    -9.259864    -7.019330    -7.013870    -7.013787    -0.799782    -0.639453    -0.520106

        11.1         12.1         13.1         14.1         15.1         16.1         17.1         18.1         19.1         20.1
     -0.290271    -0.289919    -0.204348    -0.139846    -0.138750    -0.082678    -0.081754    -0.079589     0.149656     0.195797

 HOMO     18.1    -0.079589 =      -2.1657eV
 LUMO     19.1     0.149656 =       4.0723eV
 LUMO-HOMO         0.229245 =       6.2381eV


 **********************************************************************************************************************************
 DATASETS  * FILE   NREC   LENGTH (MB)   RECORD NAMES
              1      20       78.00       500      610      700      900      950      970     1000      129      960     1100   
                                          VAR    BASINP    GEOM    SYMINP    ZMAT    AOBASIS   BASIS     P2S    ABASIS      S 
                                         1400     1410     1200     1210     1080     1600     1650     1300     1700     1800   
                                           T        V       H0       H01     AOSYM     SMH    MOLCAS    ERIS     OPER     GRID   

              2       7        0.79       800      801      700     1000      520     1800     2100   
                                        LATTICE  LATGRAD   GEOM     BASIS   MCVARS    GRID      RKS  

 PROGRAMS   *        TOTAL        KS       INT
 CPU TIMES  *         8.59      5.01      3.47
 REAL TIME  *        10.09 SEC
 DISK USED  *       316.71 MB      
 **********************************************************************************************************************************
 ENERGY(1)        =      -599.97372615 AU

 Use grid at  1800.2
 Integration target accuracy:  0.10E-06
 Angular quadrature scheme: LEBEDEV      Threshold: 0.00E+00     Crowding factor:    0.00
 Minimum L=  0  0  0  0     Maximum L= 53 53 53 53
 Radial quadrature scheme: LOG          mr= 3     Scale=  1.00     Minimum quadrature orders:  20  25  25  30     Threshold: 0.00E+00
 Quadrature type=1     Voronoi partitioning: mmu= 10     Voronoi weight flags   2
 Use symmetry=F     Cache=T


 **********************************************************************************************************************************
 DATASETS  * FILE   NREC   LENGTH (MB)   RECORD NAMES
              1      20       78.00       500      610      700      900      950      970     1000      129      960     1100   
                                          VAR    BASINP    GEOM    SYMINP    ZMAT    AOBASIS   BASIS     P2S    ABASIS      S 
                                         1400     1410     1200     1210     1080     1600     1650     1300     1700     1800   
                                           T        V       H0       H01     AOSYM     SMH    MOLCAS    ERIS     OPER     GRID   

              2       8        0.79       800      801      700     1000      520     1800     2100     1800(1)
                                        LATTICE  LATGRAD   GEOM     BASIS   MCVARS    GRID      RKS     GRID   

 PROGRAMS   *        TOTAL      GRID        KS       INT
 CPU TIMES  *         8.64      0.05      5.01      3.47
 REAL TIME  *        10.15 SEC
 DISK USED  *       316.71 MB      
 **********************************************************************************************************************************

 Density functional group B3LYP=B88+DIRAC+LYP+VWN5
 Functional: B88(Automatically generated (new) B88)                            Gradient terms: 1
 Functional: DIRAC(Automatically generated (new) DIRAC)                        Gradient terms: 0
 Functional: LYP(Automatically generated (new) LYP)                            Gradient terms: 1
 Functional: VWN5(Automatically generated (new) VWN5)                          Gradient terms: 0
 Use grid at  1800.2
 

 Exact exchange will be calculated, factor:  0.2000

 Functional: B88                       Factor:  0.7200
 Functional: DIRAC                     Factor:  0.0800
 Functional: LYP                       Factor:  0.8100
 Functional: VWN5                      Factor:  0.1900
 
 Warning: extending grid record  1800.2 from   573 to   693 words
 Generated new metagrid on record  1800.2 with target accuracy 1.0D-07 and 42602 points in CPU time    0.4
 Computed new grid on record 1800.1 in CPU time    0.5
   97125 words reserved for DFT integration

 PROGRAM * RKS-SCF (Restricted closed shell Kohn-Sham)     Authors: W. Meyer, H.-J. Werner, P.J. Knowles, 1993

 NUMBER OF ELECTRONS:      18+   18-    SPACE SYMMETRY=1    SPIN SYMMETRY: Singlet 
 CONVERGENCE THRESHOLDS:    1.00E-05 (Density)    1.00E-06 (Energy)
 MAX. NUMBER OF ITERATIONS:        0
 INTERPOLATION TYPE:            DIIS
 INTERPOLATION STEPS:              2 (START)      1 (STEP)
 LEVEL SHIFTS:                  0.00 (CLOSED)  0.00 (OPEN) 



 Use fine grid record 1800.2 for energy threshold  1.0D-07
 Molecular orbitals read from record     2100.2  Type=RKS/CANONICAL (state 1.1)

 Molecular orbital dump at record        2101.2

 ITERATION    DDIFF          GRAD             ENERGY        2-EL.EN.            DIPOLE MOMENTS         DIIS   ORB.
    1      0.000D+00      0.000D+00      -599.97056545    716.376245   -0.06930   -0.13168   -0.02442    0    start

 Final occupancy:  18

 !RKS STATE 1.1 Energy               -599.970565454143
 Nuclear energy                        86.29322467
 One-electron energy                -1007.88638864
 Two-electron energy                  358.18812254
 SCF exchange energy                  -44.00679938     Factor= 0.2000
 Density functional                   -36.56552402     B88=-44.09957053 DIRAC=-40.38685807 LYP= -1.34896673 VWN5= -2.58011337
 Virial quotient                       -1.00176780
 !RKS STATE 1.1 Dipole moment          -0.06929510    -0.13167949    -0.02442091
 Dipole moment /Debye                  -0.17611905    -0.33467395    -0.06206769

 Orbital energies:

         1.1          2.1          3.1          4.1          5.1          6.1          7.1          8.1          9.1         10.1
   -101.327563   -24.320284   -10.073596    -9.259864    -7.019330    -7.013870    -7.013787    -0.799782    -0.639453    -0.520106

        11.1         12.1         13.1         14.1         15.1         16.1         17.1         18.1         19.1         20.1
     -0.290271    -0.289919    -0.204348    -0.139846    -0.138750    -0.082678    -0.081754    -0.079589     0.149656     0.195797

 HOMO     18.1    -0.079589 =      -2.1657eV
 LUMO     19.1     0.149656 =       4.0723eV
 LUMO-HOMO         0.229245 =       6.2381eV


 **********************************************************************************************************************************
 DATASETS  * FILE   NREC   LENGTH (MB)   RECORD NAMES
              1      20       78.43       500      610      700      900      950      970     1000      129      960     1100   
                                          VAR    BASINP    GEOM    SYMINP    ZMAT    AOBASIS   BASIS     P2S    ABASIS      S 
                                         1400     1410     1200     1210     1080     1600     1650     1300     1700     1800   
                                           T        V       H0       H01     AOSYM     SMH    MOLCAS    ERIS     OPER     GRID   

              2       9        1.45       800      801      700     1000      520     1800     2100     1800(1)  2101   
                                        LATTICE  LATGRAD   GEOM     BASIS   MCVARS    GRID      RKS     GRID      RKS  

 PROGRAMS   *        TOTAL        KS      GRID        KS       INT
 CPU TIMES  *         9.68      1.04      0.05      5.01      3.47
 REAL TIME  *        11.22 SEC
 DISK USED  *       316.71 MB      
 **********************************************************************************************************************************

 Density matrix read from record         2101.2  Type=RKS/CHARGE (state 1.1)
 Molecular orbitals read from record     2100.2  Type=RKS/CANONICAL (state 1.1)


 **********************************************************************************************************************************
 DATASETS  * FILE   NREC   LENGTH (MB)   RECORD NAMES
              1      20       78.43       500      610      700      900      950      970     1000      129      960     1100   
                                          VAR    BASINP    GEOM    SYMINP    ZMAT    AOBASIS   BASIS     P2S    ABASIS      S 
                                         1400     1410     1200     1210     1080     1600     1650     1300     1700     1800   
                                           T        V       H0       H01     AOSYM     SMH    MOLCAS    ERIS     OPER     GRID   

              2       9        1.45       800      801      700     1000      520     1800     2100     1800(1)  2101   
                                        LATTICE  LATGRAD   GEOM     BASIS   MCVARS    GRID      RKS     GRID      RKS  

 PROGRAMS   *        TOTAL      USER        KS      GRID        KS       INT
 CPU TIMES  *        10.14      0.46      1.04      0.05      5.01      3.47
 REAL TIME  *        11.73 SEC
 DISK USED  *       316.71 MB      
 **********************************************************************************************************************************

        KS-SCF          KS-SCF  
   -599.97056545   -599.97372615
 **********************************************************************************************************************************
 Variable memory released
