	1500

C	0.239	0.733	0.304	
H	0.170	0.172	1.224	
H	1.052	0.412	-0.325	
H	-0.697	0.806	-0.222	
F	-0.419	-1.406	-0.623	
Cl	0.668	2.511	0.840	
O	1.596	-2.937	-20.365	
H	2.194	-2.191	-20.420	
H	0.763	-2.557	-20.088	
O	8.340	-12.646	6.420	
H	7.590	-12.164	6.769	
H	9.054	-12.450	7.027	
O	8.323	6.998	7.047	
H	7.954	6.160	7.328	
H	9.225	6.982	7.364	
O	6.423	-3.985	-3.363	
H	5.916	-4.657	-2.907	
H	6.206	-4.107	-4.288	
O	8.222	-12.218	13.368	
H	7.399	-12.437	12.932	
H	7.984	-12.112	14.289	
O	-10.955	5.899	11.250	
H	-10.481	5.079	11.112	
H	-10.460	6.549	10.750	
O	-0.047	11.284	2.888	
H	-0.232	10.356	2.743	
H	-0.249	11.427	3.813	
O	2.224	-6.510	-4.323	
H	2.952	-6.904	-3.842	
H	2.126	-5.638	-3.939	
O	0.950	-4.987	-11.329	
H	0.294	-5.669	-11.473	
H	0.597	-4.217	-11.773	
O	9.222	-3.773	7.512	
H	9.999	-4.137	7.937	
H	9.011	-2.993	8.024	
O	5.823	7.554	2.355	
H	6.230	7.222	3.155	
H	6.559	7.796	1.793	
O	-4.873	9.429	0.077	
H	-5.430	9.355	0.852	
H	-4.629	10.354	0.044	
O	6.689	6.042	11.338	
H	6.737	5.673	10.456	
H	6.732	6.989	11.205	
O	-5.364	-6.873	-5.731	
H	-4.669	-7.468	-6.012	
H	-5.186	-6.057	-6.199	
O	-0.208	13.833	1.834	
H	-0.409	12.960	2.171	
H	0.690	13.764	1.508	
O	-1.145	-10.228	-7.857	
H	-1.054	-10.736	-8.664	
H	-1.087	-10.878	-7.157	
O	-0.823	-4.246	-2.634	
H	-0.993	-3.305	-2.678	
H	-0.344	-4.366	-1.814	
O	12.422	-3.008	2.542	
H	11.991	-3.448	1.809	
H	12.221	-3.555	3.302	
O	-6.599	-1.223	-4.674	
H	-6.304	-2.118	-4.843	
H	-5.810	-0.760	-4.390	
O	-3.748	-3.258	7.059	
H	-3.686	-3.365	8.008	
H	-3.126	-3.893	6.705	
O	-6.841	1.874	-3.194	
H	-6.322	1.382	-2.557	
H	-7.229	2.587	-2.688	
O	-14.625	-12.079	-6.803	
H	-13.822	-12.341	-7.253	
H	-15.324	-12.529	-7.277	
O	4.379	6.304	-7.187	
H	3.533	6.442	-7.614	
H	5.025	6.531	-7.856	
O	-3.667	-1.054	-4.270	
H	-3.617	-1.308	-3.348	
H	-3.397	-1.837	-4.750	
O	-2.045	5.841	13.010	
H	-1.241	6.151	12.592	
H	-1.768	5.556	13.881	
O	1.535	-10.509	4.949	
H	1.334	-9.573	4.948	
H	1.918	-10.672	5.811	
O	-5.634	8.913	-8.287	
H	-5.608	8.925	-7.331	
H	-5.351	9.790	-8.546	
O	-6.964	2.415	0.513	
H	-6.620	1.837	-0.168	
H	-6.186	2.818	0.900	
O	2.342	-1.681	-1.836	
H	1.707	-1.554	-1.131	
H	2.661	-0.800	-2.033	
O	9.167	10.536	4.213	
H	8.468	10.746	3.594	
H	8.986	11.085	4.975	
O	-4.938	14.626	14.701	
H	-5.752	15.077	14.475	
H	-5.139	14.159	15.512	
O	-3.153	-8.758	13.101	
H	-2.553	-9.461	12.853	
H	-3.661	-9.121	13.827	
O	-2.462	8.480	-10.667	
H	-2.060	8.510	-9.799	
H	-2.362	7.569	-10.946	
O	-0.606	-1.795	5.369	
H	-0.744	-2.404	6.095	
H	-0.863	-0.942	5.719	
O	-8.019	7.426	-5.178	
H	-8.968	7.546	-5.213	
H	-7.671	8.087	-5.777	
O	-0.789	-7.081	21.976	
H	-0.874	-6.139	21.824	
H	-0.154	-7.152	22.689	
O	3.541	-10.830	-7.107	
H	3.359	-10.131	-7.736	
H	2.958	-10.647	-6.370	
O	-1.500	3.467	-5.861	
H	-0.839	3.096	-6.445	
H	-1.861	2.712	-5.396	
O	6.795	4.356	-0.811	
H	6.766	3.586	-1.379	
H	6.442	4.052	0.025	
O	-6.001	-4.102	-3.913	
H	-6.345	-4.519	-4.704	
H	-6.777	-3.778	-3.456	
O	8.012	-19.212	13.961	
H	7.454	-18.926	13.237	
H	8.477	-19.975	13.619	
O	-1.851	-6.621	3.948	
H	-1.783	-7.204	3.191	
H	-1.130	-6.001	3.839	
O	-6.568	-1.477	-9.807	
H	-6.804	-0.565	-9.977	
H	-6.600	-1.897	-10.667	
O	-10.961	10.767	-14.812	
H	-10.025	10.857	-14.987	
H	-11.199	11.575	-14.358	
O	8.281	0.076	-3.167	
H	7.576	0.680	-2.937	
H	8.024	-0.756	-2.768	
O	1.665	3.804	-9.605	
H	1.845	2.869	-9.507	
H	2.157	4.062	-10.385	
O	-8.583	6.060	1.673	
H	-9.054	5.238	1.536	
H	-9.242	6.659	2.023	
O	4.202	7.901	-12.766	
H	4.525	8.528	-13.413	
H	3.946	7.136	-13.282	
O	1.353	9.088	22.528	
H	0.942	8.225	22.562	
H	1.048	9.467	21.704	
O	7.901	-12.553	-14.489	
H	8.398	-11.877	-14.027	
H	8.422	-12.743	-15.269	
O	-0.291	17.321	7.557	
H	0.271	17.233	6.787	
H	-0.070	16.566	8.102	
O	-13.565	-0.857	-11.684	
H	-12.775	-0.920	-11.147	
H	-13.557	-1.652	-12.217	
O	11.401	3.522	-3.215	
H	12.083	3.647	-3.874	
H	11.842	3.680	-2.380	
O	1.063	5.369	0.384	
H	0.172	5.025	0.326	
H	1.601	4.719	-0.067	
O	-1.959	-1.766	-8.621	
H	-1.544	-2.063	-7.811	
H	-2.764	-2.281	-8.680	
O	-6.300	8.928	10.335	
H	-5.766	9.242	9.605	
H	-5.665	8.642	10.991	
O	-2.242	8.342	0.894	
H	-3.057	7.841	0.893	
H	-2.157	8.664	-0.003	
O	5.011	4.176	-19.100	
H	4.985	3.415	-18.521	
H	5.137	4.921	-18.512	
O	5.467	-13.586	15.891	
H	5.010	-13.416	16.715	
H	4.792	-13.496	15.219	
O	-7.239	-6.872	5.958	
H	-7.841	-7.447	6.431	
H	-7.282	-7.175	5.051	
O	-20.699	-2.320	12.215	
H	-21.447	-2.842	11.925	
H	-19.942	-2.735	11.802	
O	25.553	8.237	8.192	
H	24.635	7.965	8.189	
H	25.919	7.854	7.395	
O	-8.525	-14.735	4.170	
H	-7.868	-14.402	3.559	
H	-9.003	-13.957	4.456	
O	10.945	-3.532	-9.006	
H	10.612	-4.413	-8.831	
H	10.162	-2.983	-9.047	
O	-3.428	13.585	2.996	
H	-3.849	13.047	2.325	
H	-3.477	14.478	2.654	
O	9.106	-1.487	-15.645	
H	9.755	-0.868	-15.980	
H	8.331	-0.952	-15.474	
O	11.419	19.603	-15.930	
H	12.356	19.679	-16.108	
H	11.192	18.715	-16.207	
O	-1.844	5.999	-6.815	
H	-1.881	5.088	-6.523	
H	-2.500	6.449	-6.283	
O	-1.873	8.110	-4.931	
H	-0.971	8.020	-4.624	
H	-1.890	8.953	-5.383	
O	-0.328	-4.423	-15.473	
H	-1.121	-4.237	-14.970	
H	-0.627	-4.977	-16.194	
O	0.147	6.163	-13.607	
H	0.207	5.246	-13.876	
H	-0.117	6.629	-14.400	
O	2.875	0.854	-18.788	
H	3.511	0.183	-19.035	
H	2.522	0.554	-17.950	
O	-3.633	-7.735	7.286	
H	-3.993	-7.366	6.479	
H	-2.995	-8.383	6.990	
O	10.266	1.593	16.066	
H	10.679	2.241	15.496	
H	9.494	1.304	15.580	
O	8.951	-1.982	4.990	
H	8.006	-2.100	5.079	
H	9.305	-2.216	5.848	
O	-3.485	4.300	-1.709	
H	-4.128	4.949	-1.423	
H	-3.319	4.516	-2.627	
O	11.900	7.598	3.997	
H	11.096	7.742	3.497	
H	12.026	8.410	4.487	
O	2.192	-10.662	-13.732	
H	2.106	-11.609	-13.622	
H	1.945	-10.298	-12.882	
O	-6.620	11.463	7.134	
H	-5.934	12.009	7.519	
H	-6.268	11.201	6.283	
O	12.057	-8.235	-2.964	
H	12.070	-7.340	-3.301	
H	11.215	-8.588	-3.252	
O	-1.859	0.624	6.198	
H	-2.719	0.636	6.618	
H	-2.037	0.834	5.281	
O	-1.409	2.236	-10.709	
H	-1.495	3.071	-10.249	
H	-1.607	1.575	-10.046	
O	2.852	9.863	4.950	
H	3.350	10.681	4.955	
H	2.948	9.529	4.058	
O	6.506	-17.652	-8.706	
H	7.376	-17.993	-8.914	
H	6.356	-16.965	-9.356	
O	-7.991	8.798	-9.550	
H	-8.747	8.955	-8.985	
H	-7.240	8.814	-8.957	
O	8.441	-7.305	-6.732	
H	8.730	-7.365	-5.822	
H	8.451	-8.209	-7.047	
O	-0.413	8.224	2.786	
H	-1.098	8.208	2.117	
H	0.342	7.811	2.367	
O	1.793	8.146	0.314	
H	1.576	8.369	-0.591	
H	1.984	7.208	0.291	
O	0.191	10.578	-10.797	
H	1.021	10.108	-10.867	
H	-0.477	9.911	-10.954	
O	6.561	-3.261	5.505	
H	6.308	-4.060	5.968	
H	6.106	-3.317	4.665	
O	-12.854	3.612	-9.963	
H	-12.551	4.515	-10.059	
H	-13.660	3.574	-10.477	
O	6.629	-7.238	4.629	
H	6.757	-7.003	3.710	
H	5.934	-7.897	4.613	
O	-10.830	-7.228	-14.800	
H	-10.584	-7.947	-14.218	
H	-10.608	-6.436	-14.310	
O	0.450	-9.431	8.940	
H	1.059	-9.881	9.525	
H	-0.077	-10.132	8.556	
O	-4.915	7.631	5.361	
H	-5.594	8.086	5.860	
H	-5.270	6.754	5.218	
O	3.606	11.104	13.747	
H	3.587	11.236	12.799	
H	3.189	10.253	13.880	
O	-5.734	-10.329	-7.233	
H	-5.782	-10.582	-6.311	
H	-6.634	-10.100	-7.467	
O	3.557	3.882	-6.146	
H	3.812	4.706	-6.560	
H	2.692	3.690	-6.508	
O	-6.666	14.336	-3.027	
H	-7.245	14.922	-3.515	
H	-6.774	13.484	-3.451	
O	-10.910	8.831	-11.300	
H	-11.867	8.846	-11.316	
H	-10.686	8.820	-10.369	
O	-9.669	-6.498	-4.650	
H	-10.431	-6.440	-5.226	
H	-9.354	-5.597	-4.578	
O	4.145	-1.263	2.715	
H	5.048	-1.499	2.930	
H	4.144	-1.161	1.764	
O	6.192	3.852	2.898	
H	5.951	4.337	3.687	
H	5.686	3.041	2.950	
O	-13.522	-6.888	11.281	
H	-13.400	-6.032	11.694	
H	-12.923	-6.881	10.534	
O	4.279	-2.241	0.133	
H	3.734	-1.971	-0.606	
H	4.674	-3.067	-0.149	
O	-5.482	8.977	-5.535	
H	-6.175	9.133	-4.893	
H	-4.826	9.649	-5.348	
O	-4.223	11.573	-6.188	
H	-3.983	11.547	-7.115	
H	-3.552	12.121	-5.782	
O	-0.336	-4.880	-8.368	
H	-0.441	-5.819	-8.519	
H	-0.053	-4.531	-9.213	
O	-4.410	3.476	4.027	
H	-4.504	2.593	4.383	
H	-3.483	3.547	3.800	
O	1.127	5.405	3.235	
H	1.490	4.664	3.721	
H	1.518	5.335	2.364	
O	-6.055	16.484	8.541	
H	-5.175	16.544	8.168	
H	-6.566	16.020	7.878	
O	12.838	1.030	5.354	
H	13.341	0.769	6.125	
H	12.961	0.312	4.733	
O	-6.915	0.149	-13.953	
H	-6.624	1.053	-13.833	
H	-7.695	0.074	-13.403	
O	13.454	-3.883	-8.378	
H	13.949	-3.130	-8.055	
H	12.540	-3.602	-8.345	
O	-4.415	3.065	1.029	
H	-3.761	3.615	1.459	
H	-3.998	2.788	0.213	
O	-8.073	6.212	7.321	
H	-8.335	5.587	6.645	
H	-7.793	6.988	6.835	
O	3.742	17.127	12.639	
H	3.394	17.312	13.512	
H	3.390	16.265	12.417	
O	-3.199	0.249	12.609	
H	-3.543	0.699	11.838	
H	-2.723	0.927	13.090	
O	2.070	6.609	16.041	
H	1.517	6.016	16.550	
H	2.448	6.056	15.356	
O	0.053	21.366	11.404	
H	-0.467	22.162	11.292	
H	0.147	21.013	10.519	
O	8.398	-5.113	-0.359	
H	8.614	-6.046	-0.338	
H	7.599	-5.040	0.163	
O	-6.947	-0.112	2.001	
H	-7.030	0.763	1.622	
H	-6.921	-0.700	1.246	
O	-7.429	-4.290	12.671	
H	-7.953	-4.661	13.381	
H	-6.683	-4.885	12.588	
O	-1.994	13.319	12.040	
H	-2.139	13.678	11.164	
H	-2.532	12.527	12.066	
O	-13.514	-6.501	2.531	
H	-12.906	-5.917	2.077	
H	-14.282	-6.538	1.960	
O	-2.016	0.886	-5.066	
H	-2.614	0.139	-5.103	
H	-1.321	0.607	-4.470	
O	-9.756	2.486	10.661	
H	-9.585	2.517	9.720	
H	-9.060	3.016	11.049	
O	13.083	10.710	-5.843	
H	12.218	11.082	-5.675	
H	13.696	11.394	-5.573	
O	12.013	-9.990	-16.787	
H	12.934	-9.729	-16.785	
H	11.540	-9.205	-16.511	
O	-0.757	-12.193	5.303	
H	-0.448	-12.194	6.208	
H	-0.229	-11.522	4.869	
O	12.172	-2.076	6.680	
H	13.117	-2.043	6.834	
H	11.788	-1.670	7.457	
O	9.934	-4.818	17.824	
H	9.661	-4.842	18.741	
H	9.804	-5.713	17.512	
O	-12.827	-9.863	15.105	
H	-12.339	-9.531	15.859	
H	-12.874	-10.808	15.248	
O	12.134	-12.489	-8.497	
H	13.004	-12.267	-8.165	
H	12.300	-12.908	-9.342	
O	-12.407	0.212	17.514	
H	-13.219	0.528	17.118	
H	-12.239	0.819	18.235	
O	2.580	-4.617	-22.899	
H	3.194	-5.339	-22.766	
H	3.063	-3.838	-22.624	
O	-3.214	-6.732	9.955	
H	-4.049	-6.354	10.231	
H	-3.314	-6.876	9.014	
O	-5.776	14.163	-12.565	
H	-5.327	14.208	-11.721	
H	-6.682	13.948	-12.343	
O	8.106	6.163	0.728	
H	7.583	5.676	0.090	
H	8.232	5.551	1.453	
O	12.060	8.519	10.515	
H	12.617	9.240	10.222	
H	12.608	8.025	11.125	
O	10.514	0.586	-1.519	
H	9.657	0.788	-1.895	
H	10.957	1.433	-1.463	
O	-10.077	-8.170	-17.132	
H	-10.333	-7.901	-16.250	
H	-9.923	-7.348	-17.598	
O	10.979	-2.638	10.522	
H	10.287	-2.305	9.951	
H	11.442	-3.282	9.987	
O	18.028	-2.072	8.545	
H	18.397	-1.828	7.696	
H	18.037	-1.261	9.053	
O	-0.602	12.358	-16.550	
H	-1.399	11.872	-16.339	
H	0.109	11.743	-16.368	
O	26.391	-9.750	-11.148	
H	26.628	-9.211	-10.393	
H	25.637	-10.259	-10.853	
O	4.972	2.590	15.135	
H	5.188	3.167	15.868	
H	4.963	3.166	14.371	
O	2.030	-3.685	-3.538	
H	1.125	-3.686	-3.227	
H	2.446	-2.965	-3.064	
O	12.116	2.007	-14.447	
H	11.822	2.811	-14.018	
H	13.072	2.054	-14.414	
O	-0.006	2.815	-2.412	
H	0.423	2.801	-1.557	
H	-0.097	1.892	-2.650	
O	1.609	5.175	6.490	
H	1.000	5.860	6.214	
H	2.019	4.877	5.678	
O	-8.514	-11.202	12.390	
H	-8.163	-12.088	12.294	
H	-9.149	-11.118	11.679	
O	7.115	-15.106	7.031	
H	7.622	-14.398	6.633	
H	7.621	-15.897	6.846	
O	-5.683	-6.797	-11.411	
H	-4.766	-6.940	-11.643	
H	-6.177	-7.176	-12.139	
O	-14.070	-3.781	0.343	
H	-13.344	-4.385	0.186	
H	-14.786	-4.122	-0.192	
O	-0.602	-2.873	-6.364	
H	-1.312	-3.243	-5.839	
H	-0.246	-3.619	-6.846	
O	-14.235	10.231	1.191	
H	-14.623	9.692	1.879	
H	-14.114	11.089	1.597	
O	-14.435	0.276	-4.924	
H	-14.599	-0.558	-5.364	
H	-15.137	0.349	-4.278	
O	-8.456	-2.902	-14.054	
H	-8.078	-3.225	-13.236	
H	-7.719	-2.504	-14.518	
O	-7.237	-4.294	-17.978	
H	-7.028	-4.013	-17.087	
H	-7.212	-5.251	-17.940	
O	7.821	10.897	1.721	
H	7.969	11.820	1.927	
H	8.501	10.682	1.082	
O	-13.562	17.164	7.759	
H	-13.518	17.271	6.809	
H	-14.482	16.969	7.936	
O	-12.290	-11.260	5.490	
H	-12.530	-10.761	4.709	
H	-12.644	-10.750	6.219	
O	-2.006	12.911	-4.980	
H	-2.711	13.557	-4.940	
H	-1.711	12.821	-4.073	
O	-8.896	5.324	15.991	
H	-8.128	5.711	15.571	
H	-9.642	5.729	15.547	
O	-21.126	-2.839	-6.056	
H	-21.440	-3.523	-5.465	
H	-20.563	-3.299	-6.678	
O	6.399	-19.263	-4.975	
H	5.712	-18.903	-5.535	
H	6.470	-18.641	-4.251	
O	-15.560	-1.589	15.259	
H	-16.454	-1.251	15.323	
H	-15.071	-0.892	14.821	
O	1.895	14.232	-4.814	
H	1.142	14.819	-4.883	
H	2.258	14.409	-3.946	
O	4.748	-10.393	12.845	
H	3.917	-10.408	13.321	
H	4.953	-11.315	12.690	
O	3.991	10.282	-4.184	
H	3.882	9.336	-4.276	
H	3.127	10.599	-3.920	
O	-1.348	-6.766	12.594	
H	-1.727	-6.211	11.912	
H	-1.991	-7.464	12.721	
O	15.560	-8.242	0.131	
H	15.347	-7.955	1.019	
H	14.972	-8.980	-0.030	
O	3.600	4.793	-1.808	
H	3.901	5.695	-1.701	
H	4.284	4.261	-1.400	
O	1.107	17.481	10.588	
H	0.527	17.470	11.350	
H	0.917	16.662	10.131	
O	-9.438	2.516	-16.639	
H	-9.580	3.163	-17.331	
H	-9.674	1.680	-17.040	
O	-6.234	6.205	15.239	
H	-5.925	7.018	15.637	
H	-5.558	5.562	15.451	
O	-10.582	13.821	0.394	
H	-9.821	13.295	0.151	
H	-11.112	13.240	0.940	
O	-8.417	4.736	11.982	
H	-8.459	5.645	12.279	
H	-8.179	4.239	12.764	
O	6.948	-9.520	0.907	
H	6.829	-10.317	1.424	
H	6.137	-9.028	1.038	
O	1.438	5.021	-3.274	
H	2.229	4.977	-2.737	
H	0.937	4.244	-3.029	
O	18.573	9.770	-2.177	
H	18.998	9.693	-1.323	
H	17.703	9.392	-2.047	
O	0.743	0.804	3.864	
H	1.330	0.548	4.575	
H	1.248	1.433	3.349	
O	8.596	-7.622	-12.195	
H	9.274	-7.423	-12.840	
H	9.078	-7.932	-11.428	
O	-20.039	-5.126	6.428	
H	-20.359	-4.612	7.169	
H	-19.651	-5.905	6.826	
O	6.301	-0.156	-17.952	
H	6.758	-0.528	-17.197	
H	5.620	-0.795	-18.159	
O	-9.862	0.292	-12.292	
H	-10.006	0.672	-11.425	
H	-10.042	1.008	-12.901	
O	7.288	-5.957	2.222	
H	7.877	-5.211	2.335	
H	7.854	-6.666	1.917	
O	4.826	8.067	6.252	
H	4.476	8.559	5.509	
H	5.696	8.441	6.397	
O	4.232	1.331	9.764	
H	3.307	1.088	9.735	
H	4.297	1.941	10.499	
O	-6.658	-12.810	-8.460	
H	-6.274	-12.073	-7.985	
H	-5.999	-13.044	-9.113	
O	-2.067	0.923	-8.309	
H	-2.142	0.877	-7.356	
H	-2.113	0.012	-8.597	
O	7.413	-18.379	4.510	
H	7.616	-19.274	4.782	
H	7.685	-17.836	5.250	
O	1.319	-1.068	-5.381	
H	0.516	-1.573	-5.511	
H	2.011	-1.727	-5.324	
O	7.400	12.540	-0.850	
H	7.129	12.188	-1.698	
H	7.934	13.304	-1.067	
O	-0.423	13.167	-10.394	
H	-0.968	13.296	-11.170	
H	-0.236	12.228	-10.385	
O	-4.577	6.841	-1.323	
H	-5.431	6.474	-1.097	
H	-4.684	7.785	-1.210	
O	-1.973	9.295	-2.281	
H	-2.406	9.014	-3.088	
H	-1.362	8.587	-2.078	
O	-2.287	1.190	3.512	
H	-1.345	1.070	3.394	
H	-2.659	1.029	2.645	
O	-7.291	10.811	-11.719	
H	-6.851	10.163	-12.269	
H	-7.953	10.311	-11.241	
O	-1.639	7.891	8.179	
H	-1.828	8.094	7.263	
H	-1.349	6.979	8.167	
O	-5.044	3.194	-10.660	
H	-4.970	3.516	-9.761	
H	-4.690	3.903	-11.198	
O	-15.394	-10.504	-13.226	
H	-14.486	-10.200	-13.215	
H	-15.543	-10.846	-12.345	
O	-3.733	-3.036	-12.214	
H	-3.553	-2.357	-11.564	
H	-3.883	-3.829	-11.699	
O	1.985	3.519	8.610	
H	1.772	4.210	7.983	
H	1.269	2.890	8.527	
O	9.948	6.632	-13.187	
H	9.028	6.884	-13.107	
H	10.410	7.457	-13.338	
O	-7.660	2.769	3.310	
H	-6.779	2.534	3.019	
H	-8.056	3.198	2.552	
O	-8.455	8.978	-1.294	
H	-9.054	9.424	-0.696	
H	-8.670	9.331	-2.157	
O	-16.736	-4.129	13.448	
H	-17.121	-3.572	14.124	
H	-16.858	-5.021	13.773	
O	12.038	10.561	4.659	
H	12.105	10.880	5.559	
H	11.105	10.386	4.535	
O	-0.708	16.365	1.937	
H	-0.809	15.417	1.850	
H	0.015	16.584	1.349	
O	-0.820	4.885	15.388	
H	-0.846	5.054	16.329	
H	0.072	4.580	15.223	
O	6.339	-5.521	-6.036	
H	5.843	-5.483	-6.854	
H	7.237	-5.710	-6.309	
O	-5.542	11.536	4.803	
H	-5.197	12.429	4.777	
H	-5.010	11.055	4.168	
O	10.320	6.566	-1.014	
H	9.918	6.209	-1.806	
H	9.588	6.699	-0.412	
O	12.043	6.014	-10.987	
H	12.677	6.044	-11.704	
H	11.236	6.362	-11.366	
O	-19.019	13.902	-3.762	
H	-18.492	13.152	-3.490	
H	-18.819	14.012	-4.692	
O	4.107	5.836	7.698	
H	3.229	5.639	7.373	
H	4.242	6.759	7.482	
O	-18.220	-3.247	-13.363	
H	-18.253	-3.985	-13.972	
H	-17.558	-3.497	-12.718	
O	-3.505	-1.658	-1.667	
H	-2.558	-1.621	-1.532	
H	-3.789	-2.422	-1.164	
O	6.723	4.948	8.590	
H	6.837	4.123	8.118	
H	6.012	5.392	8.128	
O	3.457	5.468	-14.290	
H	2.882	4.818	-14.693	
H	4.034	5.751	-15.000	
O	-5.886	5.007	5.522	
H	-6.340	4.355	6.056	
H	-5.334	4.494	4.933	
O	-3.279	1.567	-14.323	
H	-3.701	1.262	-15.126	
H	-3.338	2.522	-14.369	
O	-15.980	-2.046	1.275	
H	-15.514	-1.213	1.212	
H	-15.294	-2.693	1.438	
O	-10.679	-2.088	9.516	
H	-11.210	-1.617	10.159	
H	-9.962	-2.464	10.026	
O	4.736	-6.281	1.617	
H	5.615	-6.175	1.979	
H	4.596	-7.227	1.599	
O	5.818	10.996	-6.012	
H	6.019	10.140	-6.391	
H	5.247	10.801	-5.269	
O	-5.736	20.867	4.428	
H	-6.308	20.735	5.184	
H	-4.851	20.853	4.791	
O	-5.617	11.918	-14.165	
H	-5.364	12.298	-15.006	
H	-5.573	12.649	-13.548	
O	14.156	-4.521	8.335	
H	13.974	-3.584	8.406	
H	14.538	-4.756	9.180	
O	-13.085	10.008	-16.864	
H	-13.160	9.057	-16.782	
H	-12.356	10.242	-16.290	
O	-3.770	28.849	-15.107	
H	-4.135	29.336	-14.369	
H	-4.149	29.265	-15.881	
O	-7.272	1.347	-10.248	
H	-6.597	1.996	-10.445	
H	-7.987	1.853	-9.864	
O	-12.319	-1.266	-0.276	
H	-12.814	-0.667	-0.835	
H	-12.906	-2.010	-0.143	
O	-7.524	2.633	-5.823	
H	-7.340	2.483	-4.896	
H	-7.133	3.487	-6.010	
O	-10.049	-3.525	-4.479	
H	-9.491	-3.151	-3.796	
H	-9.958	-2.924	-5.218	
O	-15.242	0.879	1.238	
H	-14.579	0.575	1.858	
H	-14.818	1.597	0.767	
O	-7.292	-6.730	-13.898	
H	-6.943	-5.918	-14.266	
H	-7.042	-7.406	-14.528	
O	6.502	-6.761	13.965	
H	5.822	-6.979	13.327	
H	7.322	-7.004	13.535	
O	-3.450	-2.845	-14.959	
H	-3.661	-3.081	-14.056	
H	-3.540	-1.892	-14.986	
O	9.375	5.350	-3.174	
H	10.071	4.694	-3.125	
H	8.896	5.132	-3.974	
O	6.172	-11.201	3.251	
H	6.377	-10.707	4.045	
H	5.223	-11.114	3.153	
O	3.129	-10.036	-2.350	
H	3.894	-10.324	-2.849	
H	3.308	-10.319	-1.453	
O	-9.027	16.176	11.992	
H	-8.405	16.787	11.597	
H	-8.497	15.641	12.582	
O	-3.418	-8.690	-6.870	
H	-2.743	-9.294	-7.179	
H	-4.243	-9.146	-7.038	
O	-2.141	13.137	-0.264	
H	-1.882	13.311	0.641	
H	-2.137	13.998	-0.684	
O	-11.343	4.001	-0.734	
H	-11.006	4.180	0.143	
H	-11.271	4.838	-1.194	
O	-4.413	12.077	0.978	
H	-5.103	12.705	0.763	
H	-3.651	12.380	0.484	
O	-10.167	7.708	27.654	
H	-11.100	7.868	27.800	
H	-9.728	8.437	28.092	
O	1.503	-2.750	8.053	
H	0.942	-3.514	8.185	
H	2.323	-2.974	8.493	
O	7.361	-0.652	-6.595	
H	8.046	-1.261	-6.869	
H	7.421	0.073	-7.218	
O	-4.720	13.107	-16.528	
H	-3.953	13.497	-16.108	
H	-4.796	13.565	-17.364	
O	1.953	-12.478	1.192	
H	2.120	-13.154	0.535	
H	1.231	-12.825	1.716	
O	5.768	-12.871	-12.904	
H	5.063	-13.211	-13.456	
H	6.519	-12.798	-13.493	
O	24.445	3.199	-12.963	
H	23.777	3.097	-12.285	
H	24.729	2.305	-13.156	
O	-7.074	8.704	-18.062	
H	-6.962	9.583	-17.699	
H	-7.523	8.844	-18.895	
O	-7.823	0.961	5.544	
H	-7.703	1.571	4.816	
H	-7.094	0.345	5.462	
O	14.387	-5.660	5.759	
H	14.374	-5.305	6.648	
H	14.507	-4.895	5.196	
O	-2.665	8.967	5.390	
H	-2.670	9.661	4.732	
H	-3.463	8.466	5.217	
O	12.882	-0.989	14.731	
H	13.368	-0.168	14.813	
H	12.477	-1.116	15.589	
O	-21.944	-4.771	-13.890	
H	-21.316	-5.372	-13.490	
H	-22.791	-5.204	-13.787	
O	12.880	6.884	-8.381	
H	12.562	6.559	-9.223	
H	12.589	6.230	-7.746	
O	-9.399	-10.506	-15.669	
H	-8.971	-10.145	-16.445	
H	-8.891	-11.289	-15.457	
O	5.821	-14.378	3.741	
H	5.004	-14.667	3.334	
H	6.452	-14.354	3.022	
O	-7.591	-9.221	-10.384	
H	-7.854	-8.893	-9.524	
H	-8.155	-9.979	-10.534	
O	-10.331	3.714	1.784	
H	-10.502	2.804	1.542	
H	-11.118	3.989	2.255	
O	-12.619	4.773	2.928	
H	-13.546	4.658	2.721	
H	-12.546	5.685	3.210	
O	11.878	8.598	-0.453	
H	11.346	9.075	0.184	
H	11.354	7.828	-0.674	
O	1.435	-12.782	-6.999	
H	1.750	-13.533	-7.502	
H	2.201	-12.215	-6.909	
O	-3.290	-9.951	9.981	
H	-3.177	-9.060	10.313	
H	-3.970	-10.331	10.537	
O	-6.899	-8.002	-21.863	
H	-7.167	-7.310	-22.467	
H	-5.955	-8.083	-21.993	
O	0.084	-5.031	3.104	
H	0.652	-4.610	3.750	
H	0.643	-5.156	2.338	
O	-4.947	-6.894	-2.040	
H	-5.042	-6.191	-2.682	
H	-5.741	-6.841	-1.508	
O	-4.622	-0.918	-21.264	
H	-4.038	-0.892	-22.022	
H	-5.475	-0.653	-21.610	
O	0.501	2.140	-7.199	
H	-0.052	1.528	-7.685	
H	1.348	1.700	-7.134	
O	-13.683	-4.509	12.508	
H	-14.348	-4.096	13.059	
H	-13.612	-3.933	11.747	
O	4.088	7.357	-26.326	
H	4.996	7.614	-26.169	
H	3.954	7.507	-27.262	
O	6.995	9.019	-3.604	
H	7.246	8.806	-4.502	
H	6.952	8.172	-3.159	
O	5.142	11.495	6.115	
H	5.513	11.499	5.232	
H	5.454	10.678	6.503	
O	-8.704	7.423	-11.651	
H	-9.567	7.836	-11.652	
H	-8.230	7.859	-10.943	
O	-5.024	-16.426	-11.705	
H	-4.258	-16.283	-11.149	
H	-5.727	-16.645	-11.093	
O	18.506	5.020	-5.803	
H	19.021	5.011	-4.996	
H	17.996	5.828	-5.753	
O	9.279	-7.755	0.779	
H	10.104	-8.185	0.557	
H	8.613	-8.431	0.649	
O	2.640	9.309	-7.726	
H	2.389	8.889	-6.904	
H	2.624	8.602	-8.371	
O	-0.134	6.896	-2.049	
H	-0.487	6.688	-1.184	
H	0.037	6.044	-2.451	
O	10.559	10.329	-3.255	
H	10.915	9.469	-3.034	
H	11.241	10.947	-2.993	
O	4.147	20.980	8.586	
H	3.788	20.511	9.340	
H	4.908	21.446	8.934	
O	2.274	10.704	-16.702	
H	2.075	9.771	-16.780	
H	2.461	10.985	-17.597	
O	-1.778	5.513	-0.092	
H	-1.917	5.171	0.791	
H	-2.425	5.058	-0.631	
O	6.642	6.624	-2.409	
H	7.557	6.472	-2.173	
H	6.155	5.961	-1.921	
O	-9.904	-2.054	-0.503	
H	-9.651	-1.414	-1.168	
H	-10.820	-1.852	-0.312	
O	11.060	0.387	8.184	
H	11.744	0.529	7.530	
H	11.241	1.036	8.865	
O	13.005	-5.508	-10.471	
H	13.317	-4.746	-9.984	
H	12.158	-5.238	-10.825	
O	-0.350	0.056	-2.958	
H	0.555	-0.069	-3.242	
H	-0.387	-0.343	-2.089	
O	9.103	0.813	-12.524	
H	8.667	0.465	-13.302	
H	9.721	0.129	-12.269	
O	-17.821	0.261	-0.319	
H	-17.183	0.519	0.347	
H	-17.688	-0.681	-0.426	
O	-11.150	5.721	7.509	
H	-11.704	5.194	6.933	
H	-10.304	5.756	7.063	
O	-1.877	6.407	4.206	
H	-1.184	6.817	3.687	
H	-2.138	7.082	4.833	
O	-9.050	4.597	5.100	
H	-9.228	5.273	4.446	
H	-8.568	3.922	4.622	
O	4.046	-7.570	-2.466	
H	3.639	-8.428	-2.347	
H	4.744	-7.722	-3.104	
O	0.785	7.619	5.517	
H	0.517	7.334	4.643	
H	0.939	8.559	5.426	
O	-2.643	-5.759	-6.859	
H	-1.943	-5.523	-7.468	
H	-2.762	-6.701	-6.983	
O	10.322	13.388	-1.352	
H	11.108	12.841	-1.362	
H	9.619	12.793	-1.091	
O	3.571	13.495	6.883	
H	3.851	13.889	7.709	
H	4.179	12.767	6.748	
O	4.597	-9.730	9.104	
H	5.161	-9.502	9.843	
H	3.790	-10.049	9.509	
O	-3.360	-3.499	-5.272	
H	-4.190	-3.788	-4.893	
H	-3.133	-4.182	-5.902	
O	-3.246	1.136	-1.358	
H	-2.942	0.645	-2.122	
H	-3.024	2.047	-1.555	
O	-6.324	11.875	-4.073	
H	-6.153	11.285	-3.340	
H	-5.509	11.874	-4.576	
O	9.171	5.909	-8.295	
H	9.286	5.229	-7.631	
H	9.026	5.428	-9.109	
O	-5.807	0.259	-1.331	
H	-4.860	0.404	-1.320	
H	-5.925	-0.584	-0.895	
O	5.623	-7.822	-4.750	
H	5.713	-8.343	-5.548	
H	5.956	-6.957	-4.989	
O	-9.794	12.262	5.052	
H	-10.662	12.565	5.320	
H	-9.387	13.028	4.648	
O	-11.241	-8.711	-7.699	
H	-10.947	-8.454	-8.573	
H	-11.268	-7.893	-7.204	
O	-7.447	-4.981	2.178	
H	-7.526	-4.386	2.924	
H	-8.164	-4.730	1.595	
O	9.638	3.300	-11.714	
H	9.117	2.526	-11.928	
H	10.115	3.499	-12.520	
O	9.093	7.763	2.705	
H	8.709	7.189	2.043	
H	8.640	7.532	3.516	
O	-9.111	10.707	-3.404	
H	-9.508	11.577	-3.450	
H	-8.396	10.736	-4.039	
O	14.263	-0.191	7.410	
H	14.218	-0.651	8.248	
H	14.788	-0.763	6.850	
O	-15.879	-12.679	-3.980	
H	-15.267	-13.315	-3.611	
H	-16.527	-13.210	-4.443	
O	-0.098	1.972	7.806	
H	0.429	1.213	8.055	
H	-0.691	1.641	7.132	
O	0.192	-14.797	10.475	
H	0.251	-15.568	9.910	
H	-0.695	-14.464	10.334	
O	4.920	-15.262	-14.974	
H	5.684	-15.331	-15.546	
H	4.293	-14.740	-15.474	
O	9.234	-4.965	-4.221	
H	8.945	-5.861	-4.048	
H	8.678	-4.421	-3.664	
O	9.522	-16.043	-8.572	
H	10.001	-15.915	-7.754	
H	9.363	-16.986	-8.612	
O	-9.379	-2.438	5.931	
H	-8.815	-2.058	5.257	
H	-8.787	-2.958	6.474	
O	11.043	-15.463	13.725	
H	10.375	-14.986	13.232	
H	10.684	-15.532	14.610	
O	14.029	-14.344	0.117	
H	13.959	-14.020	1.015	
H	13.527	-15.159	0.116	
O	-8.917	2.585	-8.270	
H	-8.419	2.601	-7.452	
H	-9.071	3.507	-8.475	
O	7.701	-2.221	-1.730	
H	7.132	-2.863	-2.155	
H	8.061	-2.683	-0.973	
O	3.336	8.835	2.315	
H	4.139	8.374	2.073	
H	2.754	8.714	1.565	
O	-12.671	-5.769	-4.147	
H	-12.264	-4.914	-4.005	
H	-13.557	-5.673	-3.797	
O	-2.857	16.117	-0.871	
H	-2.266	16.528	-1.502	
H	-3.721	16.468	-1.088	
O	-1.272	-0.666	11.094	
H	-1.235	0.164	10.619	
H	-2.013	-0.568	11.691	
O	-7.439	-10.318	-17.539	
H	-7.854	-10.164	-18.387	
H	-7.323	-11.267	-17.496	
O	3.468	-4.325	14.236	
H	2.599	-4.678	14.045	
H	3.590	-3.625	13.595	
O	2.492	-5.568	4.639	
H	2.450	-4.613	4.593	
H	3.137	-5.747	5.324	
O	11.009	7.217	8.222	
H	11.187	7.392	9.146	
H	11.825	6.846	7.887	
O	-10.456	-11.304	-3.746	
H	-10.070	-10.581	-3.250	
H	-11.028	-10.878	-4.384	
O	5.032	-5.594	-1.165	
H	5.040	-5.939	-0.272	
H	4.766	-6.338	-1.706	
O	-4.326	17.383	4.572	
H	-3.440	17.714	4.428	
H	-4.467	16.755	3.863	
O	6.146	-1.755	-9.634	
H	5.244	-1.816	-9.321	
H	6.063	-1.560	-10.567	
O	8.224	-13.294	-8.306	
H	8.673	-14.088	-8.595	
H	7.367	-13.598	-8.008	
O	-7.177	-3.861	-6.440	
H	-6.852	-4.372	-7.181	
H	-7.681	-3.152	-6.839	
O	-3.409	10.454	3.034	
H	-2.964	9.839	2.451	
H	-3.917	11.015	2.448	
O	-10.654	-4.818	-13.198	
H	-11.037	-5.264	-12.442	
H	-10.352	-3.978	-12.853	
O	3.387	-11.165	3.162	
H	3.029	-11.786	2.528	
H	2.631	-10.888	3.680	
O	4.860	-0.315	-5.894	
H	4.369	-1.133	-5.976	
H	5.778	-0.584	-5.916	
O	-3.991	-8.551	1.690	
H	-3.525	-8.730	0.873	
H	-4.062	-7.597	1.723	
O	14.119	-2.320	-11.845	
H	13.746	-2.127	-10.985	
H	14.464	-1.482	-12.151	
O	-4.709	6.006	7.931	
H	-4.986	6.167	7.029	
H	-5.510	6.091	8.447	
O	-9.239	2.310	-1.648	
H	-8.811	2.557	-0.828	
H	-10.076	2.774	-1.631	
O	1.943	5.536	-11.760	
H	1.306	5.809	-12.420	
H	2.766	5.453	-12.241	
O	2.672	-13.465	10.615	
H	2.262	-14.279	10.907	
H	2.448	-13.403	9.686	
O	-9.745	-4.240	1.227	
H	-10.412	-4.741	0.758	
H	-9.920	-3.329	0.992	
O	7.994	-16.652	18.608	
H	8.933	-16.840	18.636	
H	7.676	-17.134	17.845	
O	6.899	-10.548	7.546	
H	6.170	-10.402	8.148	
H	7.581	-9.946	7.843	
O	14.110	-15.326	-8.244	
H	13.830	-16.234	-8.132	
H	13.407	-14.808	-7.852	
O	-3.568	10.927	12.681	
H	-4.203	10.608	12.040	
H	-3.174	10.133	13.043	
O	-19.947	2.571	0.116	
H	-19.469	1.813	0.453	
H	-20.394	2.933	0.881	
O	10.255	3.804	8.357	
H	10.892	4.204	7.766	
H	10.661	3.858	9.222	
O	8.099	1.128	4.588	
H	8.883	0.647	4.325	
H	7.768	0.651	5.349	
O	-14.492	-2.259	-6.671	
H	-14.006	-1.899	-7.413	
H	-14.590	-3.188	-6.877	
O	1.406	-6.879	-0.945	
H	1.449	-5.949	-0.720	
H	2.271	-7.080	-1.302	
O	-8.502	-2.242	-8.167	
H	-8.829	-1.436	-7.767	
H	-7.741	-1.966	-8.677	
O	1.975	-0.556	13.582	
H	1.862	-1.013	14.415	
H	2.587	-1.103	13.089	
O	3.242	16.078	15.627	
H	4.167	15.880	15.483	
H	3.246	16.828	16.221	
O	9.403	4.167	2.950	
H	8.943	3.403	2.602	
H	9.259	4.124	3.896	
O	-23.293	-1.557	-8.610	
H	-24.135	-1.555	-8.153	
H	-22.650	-1.360	-7.929	
O	1.196	4.759	-6.879	
H	0.873	4.033	-7.413	
H	1.140	4.439	-5.979	
O	14.620	-5.716	-2.018	
H	15.192	-4.949	-2.045	
H	14.624	-6.050	-2.915	
O	-4.967	-5.967	-22.975	
H	-4.516	-5.372	-23.575	
H	-5.504	-5.395	-22.428	
O	-3.231	-11.051	5.577	
H	-3.344	-10.885	4.641	
H	-2.420	-11.555	5.636	
O	-10.747	0.990	1.254	
H	-10.918	0.534	2.078	
H	-10.904	0.331	0.577	
O	10.526	-11.831	2.158	
H	10.902	-12.081	3.002	
H	10.845	-10.941	2.007	
O	-7.417	-6.098	-0.512	
H	-7.098	-5.836	0.351	
H	-7.980	-6.853	-0.341	
O	14.000	3.625	-4.228	
H	14.761	3.880	-3.706	
H	14.017	2.668	-4.225	
O	-8.295	-11.752	-0.885	
H	-7.484	-11.393	-1.246	
H	-8.673	-12.259	-1.603	
O	13.851	1.673	-9.868	
H	13.275	2.437	-9.830	
H	14.403	1.750	-9.089	
O	6.037	11.487	21.553	
H	5.187	11.386	21.123	
H	6.477	10.648	21.415	
O	-1.939	-3.241	3.096	
H	-1.218	-3.848	2.929	
H	-1.691	-2.790	3.903	
O	10.384	0.066	3.676	
H	10.325	-0.783	4.115	
H	11.308	0.305	3.739	
O	10.224	12.474	-16.285	
H	10.749	11.676	-16.352	
H	10.868	13.181	-16.240	
O	12.313	5.098	-6.425	
H	11.801	4.302	-6.565	
H	13.087	4.805	-5.945	
O	-15.172	-8.276	-9.696	
H	-14.305	-8.643	-9.522	
H	-15.775	-8.850	-9.223	
O	-5.222	-1.147	6.176	
H	-4.989	-1.011	5.257	
H	-4.774	-1.957	6.420	
O	-8.117	-2.930	-2.404	
H	-8.077	-2.001	-2.631	
H	-8.577	-2.953	-1.565	
O	-4.413	-3.116	-9.288	
H	-4.695	-3.955	-8.925	
H	-5.222	-2.614	-9.390	
O	2.632	1.037	-2.351	
H	3.182	1.288	-3.093	
H	3.001	1.513	-1.607	
O	8.243	3.815	5.570	
H	8.112	2.985	5.112	
H	8.741	3.582	6.353	
O	8.472	14.705	-7.749	
H	7.622	14.270	-7.687	
H	9.110	14.013	-7.572	
O	-9.004	7.391	-14.807	
H	-8.178	7.722	-14.453	
H	-8.749	6.893	-15.585	
O	13.479	-13.015	13.775	
H	13.694	-13.867	13.394	
H	13.338	-12.444	13.020	
O	10.766	2.810	-6.157	
H	10.399	2.313	-6.888	
H	10.543	2.295	-5.381	
O	-0.172	-7.742	17.139	
H	-0.137	-8.067	18.038	
H	-0.562	-8.460	16.639	
O	2.547	18.022	-6.913	
H	2.299	17.982	-5.990	
H	1.766	17.732	-7.385	
O	11.862	-2.721	-4.168	
H	12.690	-2.389	-4.515	
H	11.200	-2.402	-4.781	
O	-12.541	15.991	-0.055	
H	-12.815	16.048	-0.971	
H	-12.234	15.090	0.047	
O	12.258	-3.859	-1.853	
H	11.963	-3.512	-2.695	
H	13.093	-4.284	-2.047	
O	-1.463	8.527	-8.139	
H	-0.819	8.959	-7.577	
H	-1.691	7.725	-7.669	
O	-0.977	5.091	8.281	
H	-0.442	4.311	8.130	
H	-1.853	4.749	8.464	
O	6.782	-20.875	-7.203	
H	7.206	-20.039	-7.397	
H	6.397	-20.754	-6.335	
O	-4.597	4.505	-8.234	
H	-3.804	4.000	-8.053	
H	-5.015	4.611	-7.380	
O	-8.677	-5.385	-9.251	
H	-9.126	-6.142	-9.627	
H	-9.382	-4.784	-9.008	
O	4.122	-8.891	1.019	
H	3.598	-9.068	1.801	
H	4.194	-9.739	0.582	
O	6.003	8.690	-10.691	
H	5.786	9.621	-10.636	
H	5.425	8.349	-11.374	
O	-10.955	-10.953	-13.705	
H	-11.654	-10.356	-13.439	
H	-10.555	-10.531	-14.465	
O	-8.538	5.544	-3.264	
H	-8.234	6.087	-3.991	
H	-7.881	5.669	-2.579	
O	0.869	16.781	4.702	
H	1.570	17.407	4.520	
H	0.401	16.698	3.871	
O	2.928	2.453	12.066	
H	2.314	3.157	12.276	
H	2.826	1.825	12.781	
O	3.621	7.611	-4.513	
H	3.824	6.741	-4.856	
H	2.671	7.688	-4.599	
O	16.384	-10.163	4.255	
H	15.541	-9.732	4.396	
H	16.893	-9.534	3.742	
O	0.847	-3.881	-0.441	
H	1.377	-3.863	0.356	
H	0.309	-3.091	-0.389	
O	11.442	-4.210	5.032	
H	11.610	-3.370	5.460	
H	10.876	-4.682	5.643	
O	-4.111	9.153	7.971	
H	-3.706	9.412	7.143	
H	-3.804	8.259	8.119	
O	6.206	15.651	11.134	
H	7.037	15.940	11.510	
H	5.775	15.173	11.843	
O	9.116	-4.245	3.412	
H	10.046	-4.381	3.593	
H	8.810	-3.691	4.130	
O	20.021	5.462	12.014	
H	19.720	6.337	12.262	
H	20.931	5.428	12.309	
O	-3.855	11.005	15.633	
H	-2.981	10.712	15.891	
H	-3.785	11.171	14.693	
O	7.342	1.251	-8.693	
H	6.724	0.981	-9.372	
H	7.049	2.125	-8.434	
O	12.554	-5.961	-0.003	
H	12.982	-5.973	-0.859	
H	12.618	-6.864	0.310	
O	14.565	-8.822	-2.995	
H	13.620	-8.673	-3.039	
H	14.942	-7.945	-2.921	
O	-6.021	-5.225	-15.751	
H	-5.753	-6.000	-16.244	
H	-5.388	-4.551	-15.999	
O	10.853	7.494	-6.044	
H	11.216	6.642	-6.285	
H	11.421	7.806	-5.340	
O	13.103	-6.332	-6.533	
H	13.227	-5.440	-6.857	
H	12.374	-6.265	-5.916	
O	-0.744	10.609	-5.936	
H	-1.015	11.236	-5.265	
H	-0.109	11.086	-6.469	
O	-0.838	-12.692	-2.422	
H	-1.357	-13.496	-2.412	
H	-1.123	-12.212	-1.644	
O	-6.047	-5.620	-8.617	
H	-5.659	-6.135	-9.326	
H	-6.983	-5.604	-8.816	
O	6.146	-11.073	-6.735	
H	5.224	-10.897	-6.920	
H	6.174	-12.006	-6.523	
O	6.700	2.317	-2.482	
H	6.458	1.589	-1.910	
H	6.016	2.333	-3.151	
O	6.570	-0.422	-14.670	
H	5.769	0.065	-14.863	
H	6.267	-1.219	-14.235	
O	12.867	0.913	-4.302	
H	13.066	0.281	-3.611	
H	11.912	0.914	-4.358	
O	0.853	7.108	-5.076	
H	0.912	6.378	-4.460	
H	0.349	6.761	-5.811	
O	1.760	-0.075	8.201	
H	1.632	-1.023	8.183	
H	2.003	0.117	9.106	
O	0.251	-8.303	-4.736	
H	-0.350	-8.012	-4.051	
H	1.013	-7.732	-4.645	
O	6.348	-7.377	-16.684	
H	7.241	-7.249	-17.003	
H	5.909	-7.862	-17.384	
O	-9.197	-0.529	21.892	
H	-9.142	0.313	22.345	
H	-8.648	-0.420	21.116	
O	-10.526	-1.510	-6.207	
H	-9.860	-0.823	-6.198	
H	-11.259	-1.128	-6.689	
O	6.030	-5.792	10.042	
H	6.060	-6.471	9.368	
H	6.336	-6.230	10.836	
O	-15.801	-8.484	9.471	
H	-15.713	-9.241	10.050	
H	-16.530	-7.983	9.839	
O	4.692	4.722	-11.754	
H	4.576	4.137	-12.503	
H	5.381	5.327	-12.028	
O	16.097	0.034	-6.065	
H	16.394	0.942	-5.997	
H	16.706	-0.459	-5.515	
O	8.068	9.074	-13.123	
H	7.738	8.981	-12.229	
H	8.116	10.020	-13.264	
O	-9.683	12.710	-8.802	
H	-8.883	12.239	-8.570	
H	-9.970	12.307	-9.622	
O	-7.268	-18.265	-0.872	
H	-7.454	-18.720	-0.050	
H	-7.691	-17.412	-0.775	
O	4.444	2.054	-4.204	
H	4.688	1.361	-4.818	
H	4.255	2.810	-4.760	
O	3.827	-1.733	-18.488	
H	3.021	-2.147	-18.180	
H	4.416	-2.464	-18.673	
O	-5.936	14.366	-0.406	
H	-6.677	14.845	-0.035	
H	-5.923	14.621	-1.328	
O	-14.030	3.174	0.022	
H	-13.095	3.378	-0.012	
H	-14.464	4.021	-0.082	
O	5.672	-7.712	16.300	
H	6.019	-7.421	15.456	
H	6.253	-7.314	16.948	
O	-4.263	-10.124	-4.548	
H	-5.096	-9.893	-4.137	
H	-3.846	-9.283	-4.734	
O	-4.442	0.946	7.508	
H	-5.149	1.587	7.438	
H	-4.782	0.164	7.073	
O	-6.552	3.111	7.370	
H	-6.806	3.747	8.038	
H	-7.290	2.503	7.324	
O	13.557	11.321	2.528	
H	12.934	10.917	3.132	
H	14.142	11.829	3.090	
O	3.353	0.749	-7.989	
H	3.846	0.442	-7.229	
H	3.986	1.257	-8.497	
O	8.513	-7.618	-3.895	
H	7.902	-7.713	-3.164	
H	8.797	-8.512	-4.087	
O	4.166	-11.279	-0.224	
H	4.911	-11.880	-0.258	
H	3.437	-11.818	0.084	
O	-11.385	8.727	-3.846	
H	-10.604	9.225	-3.605	
H	-11.507	8.909	-4.778	
O	12.437	-12.845	-1.737	
H	13.185	-12.505	-2.228	
H	12.814	-13.497	-1.146	
O	-8.592	-9.745	-7.721	
H	-9.056	-10.550	-7.952	
H	-9.278	-9.154	-7.409	
O	5.208	1.213	-21.813	
H	6.080	0.862	-21.635	
H	4.608	0.540	-21.493	
O	-8.234	11.323	-14.815	
H	-7.421	11.364	-14.312	
H	-7.955	11.129	-15.709	
O	13.536	6.292	-2.245	
H	13.204	6.903	-2.903	
H	14.486	6.405	-2.269	
O	2.522	3.339	4.513	
H	3.432	3.635	4.492	
H	2.538	2.553	5.060	
O	3.674	16.737	6.928	
H	4.066	16.419	7.741	
H	2.731	16.648	7.064	
O	-8.203	-14.137	-6.808	
H	-8.979	-14.172	-7.367	
H	-7.540	-13.704	-7.345	
O	-7.590	16.302	-4.688	
H	-8.410	16.761	-4.506	
H	-7.094	16.906	-5.241	
O	18.246	-16.582	2.422	
H	17.506	-17.140	2.663	
H	18.846	-16.646	3.165	
O	6.311	9.411	-0.307	
H	6.267	9.295	-1.257	
H	6.986	10.078	-0.178	
O	12.222	3.892	-18.821	
H	12.173	4.046	-19.765	
H	12.423	2.960	-18.740	
O	16.801	-1.743	4.045	
H	17.452	-2.441	4.117	
H	17.158	-1.150	3.383	
O	11.656	15.072	12.221	
H	11.542	16.004	12.032	
H	11.869	15.041	13.154	
O	-1.973	4.030	2.502	
H	-1.776	4.832	2.986	
H	-1.183	3.497	2.589	
O	13.517	-0.755	3.327	
H	14.408	-1.104	3.314	
H	12.991	-1.422	2.886	
O	-2.798	-0.233	1.029	
H	-2.143	-0.871	0.743	
H	-3.077	0.202	0.223	
O	-10.286	-7.795	-10.037	
H	-10.139	-8.242	-10.871	
H	-10.843	-7.049	-10.259	
O	7.008	15.529	-1.920	
H	6.377	15.267	-2.590	
H	6.801	14.977	-1.166	
O	11.980	17.593	5.230	
H	11.496	17.822	4.437	
H	12.698	18.225	5.265	
O	11.827	-9.539	2.640	
H	11.618	-8.610	2.730	
H	12.483	-9.571	1.944	
O	2.179	8.795	-11.113	
H	1.678	8.028	-10.834	
H	2.770	8.462	-11.789	
O	-3.387	-3.537	-23.813	
H	-2.534	-3.705	-24.214	
H	-3.181	-3.198	-22.942	
O	6.741	-1.665	3.066	
H	7.068	-0.843	3.431	
H	7.433	-1.957	2.472	
O	-1.932	-5.201	6.643	
H	-1.513	-5.960	7.050	
H	-2.057	-5.457	5.729	
O	-10.585	15.743	4.771	
H	-11.400	16.141	4.464	
H	-10.621	15.826	5.724	
O	-2.662	10.882	-14.816	
H	-3.004	10.166	-15.352	
H	-3.419	11.447	-14.660	
O	3.491	-14.115	-0.531	
H	4.440	-14.200	-0.627	
H	3.140	-14.928	-0.894	
O	8.629	-6.290	6.458	
H	8.152	-6.288	5.628	
H	8.766	-5.364	6.658	
O	5.585	2.270	-17.071	
H	5.040	2.006	-16.329	
H	5.880	1.445	-17.457	
O	9.759	-9.916	-4.410	
H	9.477	-10.433	-5.164	
H	10.052	-10.565	-3.770	
O	11.139	4.435	10.817	
H	11.916	4.908	11.115	
H	10.446	5.096	10.803	
O	12.249	14.023	-5.599	
H	11.303	13.876	-5.589	
H	12.383	14.684	-6.278	
O	-4.289	6.069	20.624	
H	-4.001	6.835	20.127	
H	-4.479	6.407	21.499	
O	1.584	0.101	-13.718	
H	1.777	0.258	-12.794	
H	0.732	-0.336	-13.714	
O	-6.034	-2.023	0.113	
H	-5.300	-2.613	0.280	
H	-6.573	-2.485	-0.529	
O	4.401	-5.116	16.629	
H	3.679	-5.599	17.032	
H	4.084	-4.898	15.753	
O	-10.032	-7.273	2.528	
H	-9.583	-6.430	2.476	
H	-9.836	-7.597	3.407	
O	4.600	15.364	4.771	
H	4.337	14.465	4.575	
H	4.085	15.602	5.543	
O	1.696	-12.919	-3.482	
H	0.866	-12.885	-3.005	
H	1.681	-12.145	-4.045	
	1500

C	0.239	0.733	0.304	
H	0.170	0.172	1.224	
H	1.052	0.412	-0.325	
H	-0.697	0.806	-0.222	
F	-0.419	-1.406	-0.623	
Cl	0.668	2.511	0.840	
O	1.596	-2.937	-20.365	
H	2.194	-2.191	-20.420	
H	0.763	-2.557	-20.088	
O	8.340	-12.646	6.420	
H	7.590	-12.164	6.769	
H	9.054	-12.450	7.027	
O	8.270	7.073	7.032	
H	7.889	6.294	7.437	
H	9.200	7.028	7.254	
O	6.423	-3.985	-3.363	
H	5.916	-4.657	-2.907	
H	6.206	-4.107	-4.288	
O	8.222	-12.218	13.368	
H	7.399	-12.437	12.932	
H	7.984	-12.112	14.289	
O	-10.955	5.899	11.250	
H	-10.481	5.079	11.112	
H	-10.460	6.549	10.750	
O	-0.047	11.284	2.888	
H	-0.232	10.356	2.743	
H	-0.249	11.427	3.813	
O	2.204	-6.499	-4.303	
H	2.934	-6.885	-3.819	
H	2.088	-5.633	-3.912	
O	0.950	-4.987	-11.329	
H	0.294	-5.669	-11.473	
H	0.597	-4.217	-11.773	
O	9.105	-3.839	7.524	
H	9.892	-4.186	7.944	
H	8.895	-3.049	8.022	
O	5.823	7.554	2.355	
H	6.230	7.222	3.155	
H	6.559	7.796	1.793	
O	-4.873	9.429	0.077	
H	-5.430	9.355	0.852	
H	-4.629	10.354	0.044	
O	6.689	6.042	11.338	
H	6.737	5.673	10.456	
H	6.732	6.989	11.205	
O	-5.364	-6.873	-5.731	
H	-4.669	-7.468	-6.012	
H	-5.186	-6.057	-6.199	
O	-0.306	13.811	1.882	
H	-0.496	12.935	2.217	
H	0.609	13.769	1.604	
O	-1.145	-10.228	-7.857	
H	-1.054	-10.736	-8.664	
H	-1.087	-10.878	-7.157	
O	-0.823	-4.246	-2.634	
H	-0.993	-3.305	-2.678	
H	-0.344	-4.366	-1.814	
O	12.422	-3.008	2.542	
H	11.991	-3.448	1.809	
H	12.221	-3.555	3.302	
O	-6.599	-1.223	-4.674	
H	-6.304	-2.118	-4.843	
H	-5.810	-0.760	-4.390	
O	-3.748	-3.258	7.059	
H	-3.686	-3.365	8.008	
H	-3.126	-3.893	6.705	
O	-6.841	1.874	-3.194	
H	-6.322	1.382	-2.557	
H	-7.229	2.587	-2.688	
O	-14.625	-12.079	-6.803	
H	-13.822	-12.341	-7.253	
H	-15.324	-12.529	-7.277	
O	4.379	6.304	-7.187	
H	3.533	6.442	-7.614	
H	5.025	6.531	-7.856	
O	-3.667	-1.054	-4.270	
H	-3.617	-1.308	-3.348	
H	-3.397	-1.837	-4.750	
O	-2.045	5.841	13.010	
H	-1.241	6.151	12.592	
H	-1.768	5.556	13.881	
O	1.535	-10.509	4.949	
H	1.334	-9.573	4.948	
H	1.918	-10.672	5.811	
O	-5.634	8.913	-8.287	
H	-5.608	8.925	-7.331	
H	-5.351	9.790	-8.546	
O	-6.964	2.415	0.513	
H	-6.620	1.837	-0.168	
H	-6.186	2.818	0.900	
O	2.350	-1.662	-1.908	
H	1.686	-1.553	-1.226	
H	2.636	-0.771	-2.108	
O	9.167	10.536	4.213	
H	8.468	10.746	3.594	
H	8.986	11.085	4.975	
O	-4.938	14.626	14.701	
H	-5.752	15.077	14.475	
H	-5.139	14.159	15.512	
O	-3.153	-8.758	13.101	
H	-2.553	-9.461	12.853	
H	-3.661	-9.121	13.827	
O	-2.462	8.480	-10.667	
H	-2.060	8.510	-9.799	
H	-2.362	7.569	-10.946	
O	-0.615	-1.769	5.346	
H	-0.705	-2.392	6.067	
H	-0.833	-0.921	5.733	
O	-7.953	7.499	-5.217	
H	-8.908	7.541	-5.249	
H	-7.661	8.188	-5.814	
O	-0.789	-7.081	21.976	
H	-0.874	-6.139	21.824	
H	-0.154	-7.152	22.689	
O	3.541	-10.830	-7.107	
H	3.359	-10.131	-7.736	
H	2.958	-10.647	-6.370	
O	-1.500	3.467	-5.861	
H	-0.839	3.096	-6.445	
H	-1.861	2.712	-5.396	
O	6.720	4.446	-0.730	
H	6.626	3.750	-1.380	
H	6.386	4.063	0.081	
O	-6.001	-4.102	-3.913	
H	-6.345	-4.519	-4.704	
H	-6.777	-3.778	-3.456	
O	8.273	-19.316	13.854	
H	7.787	-19.024	13.083	
H	8.793	-20.057	13.543	
O	-1.866	-6.622	3.936	
H	-1.845	-7.214	3.184	
H	-1.197	-5.965	3.744	
O	-6.568	-1.477	-9.807	
H	-6.804	-0.565	-9.977	
H	-6.600	-1.897	-10.667	
O	-10.961	10.767	-14.812	
H	-10.025	10.857	-14.987	
H	-11.199	11.575	-14.358	
O	8.281	0.076	-3.167	
H	7.576	0.680	-2.937	
H	8.024	-0.756	-2.768	
O	1.665	3.804	-9.605	
H	1.845	2.869	-9.507	
H	2.157	4.062	-10.385	
O	-8.583	6.060	1.673	
H	-9.054	5.238	1.536	
H	-9.242	6.659	2.023	
O	4.202	7.901	-12.766	
H	4.525	8.528	-13.413	
H	3.946	7.136	-13.282	
O	1.353	9.088	22.528	
H	0.942	8.225	22.562	
H	1.048	9.467	21.704	
O	7.901	-12.553	-14.489	
H	8.398	-11.877	-14.027	
H	8.422	-12.743	-15.269	
O	-0.291	17.321	7.557	
H	0.271	17.233	6.787	
H	-0.070	16.566	8.102	
O	-13.565	-0.857	-11.684	
H	-12.775	-0.920	-11.147	
H	-13.557	-1.652	-12.217	
O	11.401	3.522	-3.215	
H	12.083	3.647	-3.874	
H	11.842	3.680	-2.380	
O	1.063	5.369	0.384	
H	0.172	5.025	0.326	
H	1.601	4.719	-0.067	
O	-1.959	-1.766	-8.621	
H	-1.544	-2.063	-7.811	
H	-2.764	-2.281	-8.680	
O	-6.299	8.920	10.180	
H	-5.791	9.211	9.423	
H	-5.642	8.666	10.827	
O	-2.242	8.342	0.894	
H	-3.057	7.841	0.893	
H	-2.157	8.664	-0.003	
O	4.996	4.117	-19.113	
H	4.929	3.365	-18.525	
H	5.152	4.862	-18.532	
O	5.467	-13.586	15.891	
H	5.010	-13.416	16.715	
H	4.792	-13.496	15.219	
O	-7.229	-6.893	5.959	
H	-7.842	-7.502	6.370	
H	-7.232	-7.138	5.033	
O	-20.699	-2.320	12.215	
H	-21.447	-2.842	11.925	
H	-19.942	-2.735	11.802	
O	25.553	8.237	8.192	
H	24.635	7.965	8.189	
H	25.919	7.854	7.395	
O	-8.525	-14.735	4.170	
H	-7.868	-14.402	3.559	
H	-9.003	-13.957	4.456	
O	10.945	-3.532	-9.006	
H	10.612	-4.413	-8.831	
H	10.162	-2.983	-9.047	
O	-3.428	13.585	2.996	
H	-3.849	13.047	2.325	
H	-3.477	14.478	2.654	
O	9.106	-1.487	-15.645	
H	9.755	-0.868	-15.980	
H	8.331	-0.952	-15.474	
O	11.419	19.603	-15.930	
H	12.356	19.679	-16.108	
H	11.192	18.715	-16.207	
O	-1.844	5.999	-6.815	
H	-1.881	5.088	-6.523	
H	-2.500	6.449	-6.283	
O	-1.873	8.110	-4.931	
H	-0.971	8.020	-4.624	
H	-1.890	8.953	-5.383	
O	-0.328	-4.423	-15.473	
H	-1.121	-4.237	-14.970	
H	-0.627	-4.977	-16.194	
O	0.147	6.163	-13.607	
H	0.207	5.246	-13.876	
H	-0.117	6.629	-14.400	
O	2.875	0.854	-18.788	
H	3.511	0.183	-19.035	
H	2.522	0.554	-17.950	
O	-3.633	-7.735	7.286	
H	-3.993	-7.366	6.479	
H	-2.995	-8.383	6.990	
O	10.266	1.593	16.066	
H	10.679	2.241	15.496	
H	9.494	1.304	15.580	
O	8.951	-1.982	4.990	
H	8.006	-2.100	5.079	
H	9.305	-2.216	5.848	
O	-3.485	4.300	-1.709	
H	-4.128	4.949	-1.423	
H	-3.319	4.516	-2.627	
O	11.936	7.603	3.995	
H	11.209	7.721	3.384	
H	11.940	8.403	4.521	
O	2.192	-10.662	-13.732	
H	2.106	-11.609	-13.622	
H	1.945	-10.298	-12.882	
O	-6.620	11.463	7.134	
H	-5.934	12.009	7.519	
H	-6.268	11.201	6.283	
O	11.982	-8.208	-2.956	
H	12.020	-7.310	-3.285	
H	11.138	-8.540	-3.262	
O	-1.859	0.624	6.198	
H	-2.719	0.636	6.618	
H	-2.037	0.834	5.281	
O	-1.409	2.236	-10.709	
H	-1.495	3.071	-10.249	
H	-1.607	1.575	-10.046	
O	2.852	9.863	4.950	
H	3.350	10.681	4.955	
H	2.948	9.529	4.058	
O	6.506	-17.652	-8.706	
H	7.376	-17.993	-8.914	
H	6.356	-16.965	-9.356	
O	-7.991	8.798	-9.550	
H	-8.747	8.955	-8.985	
H	-7.240	8.814	-8.957	
O	8.441	-7.305	-6.732	
H	8.730	-7.365	-5.822	
H	8.451	-8.209	-7.047	
O	-0.413	8.224	2.786	
H	-1.098	8.208	2.117	
H	0.342	7.811	2.367	
O	1.793	8.146	0.314	
H	1.576	8.369	-0.591	
H	1.984	7.208	0.291	
O	0.191	10.578	-10.797	
H	1.021	10.108	-10.867	
H	-0.477	9.911	-10.954	
O	6.438	-3.384	5.569	
H	6.156	-4.198	5.986	
H	6.094	-3.441	4.677	
O	-12.854	3.612	-9.963	
H	-12.551	4.515	-10.059	
H	-13.660	3.574	-10.477	
O	6.629	-7.238	4.629	
H	6.757	-7.003	3.710	
H	5.934	-7.897	4.613	
O	-10.830	-7.228	-14.800	
H	-10.584	-7.947	-14.218	
H	-10.608	-6.436	-14.310	
O	0.450	-9.431	8.940	
H	1.059	-9.881	9.525	
H	-0.077	-10.132	8.556	
O	-4.843	7.569	5.238	
H	-5.550	7.950	5.758	
H	-5.107	6.659	5.104	
O	3.606	11.104	13.747	
H	3.587	11.236	12.799	
H	3.189	10.253	13.880	
O	-5.734	-10.329	-7.233	
H	-5.782	-10.582	-6.311	
H	-6.634	-10.100	-7.467	
O	3.557	3.882	-6.146	
H	3.812	4.706	-6.560	
H	2.692	3.690	-6.508	
O	-6.666	14.336	-3.027	
H	-7.245	14.922	-3.515	
H	-6.774	13.484	-3.451	
O	-10.910	8.831	-11.300	
H	-11.867	8.846	-11.316	
H	-10.686	8.820	-10.369	
O	-9.669	-6.498	-4.650	
H	-10.431	-6.440	-5.226	
H	-9.354	-5.597	-4.578	
O	4.145	-1.263	2.715	
H	5.048	-1.499	2.930	
H	4.144	-1.161	1.764	
O	6.192	3.852	2.898	
H	5.951	4.337	3.687	
H	5.686	3.041	2.950	
O	-13.498	-6.924	11.258	
H	-13.392	-6.064	11.663	
H	-12.882	-6.923	10.526	
O	4.279	-2.241	0.133	
H	3.734	-1.971	-0.606	
H	4.674	-3.067	-0.149	
O	-5.523	9.023	-5.449	
H	-6.206	9.176	-4.796	
H	-4.860	9.688	-5.263	
O	-4.223	11.573	-6.188	
H	-3.983	11.547	-7.115	
H	-3.552	12.121	-5.782	
O	-0.410	-4.745	-8.476	
H	-0.511	-5.674	-8.686	
H	-0.175	-4.335	-9.308	
O	-4.410	3.476	4.027	
H	-4.504	2.593	4.383	
H	-3.483	3.547	3.800	
O	1.127	5.405	3.235	
H	1.490	4.664	3.721	
H	1.518	5.335	2.364	
O	-6.055	16.484	8.541	
H	-5.175	16.544	8.168	
H	-6.566	16.020	7.878	
O	12.838	1.030	5.354	
H	13.341	0.769	6.125	
H	12.961	0.312	4.733	
O	-6.915	0.149	-13.953	
H	-6.624	1.053	-13.833	
H	-7.695	0.074	-13.403	
O	13.454	-3.883	-8.378	
H	13.949	-3.130	-8.055	
H	12.540	-3.602	-8.345	
O	-4.415	3.065	1.029	
H	-3.761	3.615	1.459	
H	-3.998	2.788	0.213	
O	-8.073	6.212	7.321	
H	-8.335	5.587	6.645	
H	-7.793	6.988	6.835	
O	3.742	17.127	12.639	
H	3.394	17.312	13.512	
H	3.390	16.265	12.417	
O	-3.199	0.249	12.609	
H	-3.543	0.699	11.838	
H	-2.723	0.927	13.090	
O	2.070	6.609	16.041	
H	1.517	6.016	16.550	
H	2.448	6.056	15.356	
O	0.053	21.366	11.404	
H	-0.467	22.162	11.292	
H	0.147	21.013	10.519	
O	8.398	-5.113	-0.359	
H	8.614	-6.046	-0.338	
H	7.599	-5.040	0.163	
O	-6.947	-0.112	2.001	
H	-7.030	0.763	1.622	
H	-6.921	-0.700	1.246	
O	-7.429	-4.290	12.671	
H	-7.953	-4.661	13.381	
H	-6.683	-4.885	12.588	
O	-1.994	13.319	12.040	
H	-2.139	13.678	11.164	
H	-2.532	12.527	12.066	
O	-13.514	-6.501	2.531	
H	-12.906	-5.917	2.077	
H	-14.282	-6.538	1.960	
O	-2.016	0.886	-5.066	
H	-2.614	0.139	-5.103	
H	-1.321	0.607	-4.470	
O	-9.756	2.486	10.661	
H	-9.585	2.517	9.720	
H	-9.060	3.016	11.049	
O	13.083	10.710	-5.843	
H	12.218	11.082	-5.675	
H	13.696	11.394	-5.573	
O	11.945	-9.945	-16.755	
H	12.835	-9.595	-16.735	
H	11.399	-9.234	-16.419	
O	-0.757	-12.193	5.303	
H	-0.448	-12.194	6.208	
H	-0.229	-11.522	4.869	
O	12.172	-2.076	6.680	
H	13.117	-2.043	6.834	
H	11.788	-1.670	7.457	
O	9.934	-4.818	17.824	
H	9.661	-4.842	18.741	
H	9.804	-5.713	17.512	
O	-12.827	-9.863	15.105	
H	-12.339	-9.531	15.859	
H	-12.874	-10.808	15.248	
O	12.134	-12.489	-8.497	
H	13.004	-12.267	-8.165	
H	12.300	-12.908	-9.342	
O	-12.407	0.212	17.514	
H	-13.219	0.528	17.118	
H	-12.239	0.819	18.235	
O	2.615	-4.509	-22.981	
H	3.228	-5.220	-22.796	
H	3.081	-3.716	-22.716	
O	-3.214	-6.732	9.955	
H	-4.049	-6.354	10.231	
H	-3.314	-6.876	9.014	
O	-5.776	14.163	-12.565	
H	-5.327	14.208	-11.721	
H	-6.682	13.948	-12.343	
O	8.106	6.163	0.728	
H	7.583	5.676	0.090	
H	8.232	5.551	1.453	
O	12.060	8.519	10.515	
H	12.617	9.240	10.222	
H	12.608	8.025	11.125	
O	10.680	0.700	-1.720	
H	9.831	1.002	-2.042	
H	11.221	1.489	-1.694	
O	-10.077	-8.170	-17.132	
H	-10.333	-7.901	-16.250	
H	-9.923	-7.348	-17.598	
O	10.974	-2.630	10.528	
H	10.303	-2.292	9.934	
H	11.396	-3.335	10.037	
O	18.028	-2.072	8.545	
H	18.397	-1.828	7.696	
H	18.037	-1.261	9.053	
O	-0.602	12.358	-16.550	
H	-1.399	11.872	-16.339	
H	0.109	11.743	-16.368	
O	26.288	-9.869	-11.220	
H	26.513	-9.335	-10.459	
H	25.524	-10.374	-10.942	
O	4.979	2.626	15.031	
H	5.197	3.157	15.797	
H	5.009	3.240	14.297	
O	2.200	-3.752	-3.447	
H	1.286	-3.783	-3.165	
H	2.588	-3.047	-2.929	
O	12.116	2.007	-14.447	
H	11.822	2.811	-14.018	
H	13.072	2.054	-14.414	
O	-0.005	2.758	-2.384	
H	0.408	2.762	-1.521	
H	-0.153	1.832	-2.576	
O	1.609	5.175	6.490	
H	1.000	5.860	6.214	
H	2.019	4.877	5.678	
O	-8.514	-11.202	12.390	
H	-8.163	-12.088	12.294	
H	-9.149	-11.118	11.679	
O	7.115	-15.106	7.031	
H	7.622	-14.398	6.633	
H	7.621	-15.897	6.846	
O	-5.646	-7.002	-11.283	
H	-4.731	-7.161	-11.513	
H	-6.144	-7.352	-12.021	
O	-14.083	-3.776	0.339	
H	-13.348	-4.365	0.169	
H	-14.775	-4.081	-0.248	
O	-0.771	-3.043	-6.270	
H	-1.521	-3.384	-5.783	
H	-0.383	-3.814	-6.683	
O	-14.235	10.231	1.191	
H	-14.623	9.692	1.879	
H	-14.114	11.089	1.597	
O	-14.435	0.276	-4.924	
H	-14.599	-0.558	-5.364	
H	-15.137	0.349	-4.278	
O	-8.456	-2.902	-14.054	
H	-8.078	-3.225	-13.236	
H	-7.719	-2.504	-14.518	
O	-7.237	-4.294	-17.978	
H	-7.028	-4.013	-17.087	
H	-7.212	-5.251	-17.940	
O	7.821	10.897	1.721	
H	7.969	11.820	1.927	
H	8.501	10.682	1.082	
O	-13.562	17.164	7.759	
H	-13.518	17.271	6.809	
H	-14.482	16.969	7.936	
O	-12.352	-11.291	5.514	
H	-12.566	-10.758	4.748	
H	-12.673	-10.781	6.258	
O	-2.006	12.911	-4.980	
H	-2.711	13.557	-4.940	
H	-1.711	12.821	-4.073	
O	-8.896	5.324	15.991	
H	-8.128	5.711	15.571	
H	-9.642	5.729	15.547	
O	-21.126	-2.839	-6.056	
H	-21.440	-3.523	-5.465	
H	-20.563	-3.299	-6.678	
O	6.395	-19.259	-4.961	
H	5.723	-18.896	-5.538	
H	6.536	-18.580	-4.301	
O	-15.560	-1.589	15.259	
H	-16.454	-1.251	15.323	
H	-15.071	-0.892	14.821	
O	1.895	14.232	-4.814	
H	1.142	14.819	-4.883	
H	2.258	14.409	-3.946	
O	4.748	-10.393	12.845	
H	3.917	-10.408	13.321	
H	4.953	-11.315	12.690	
O	3.991	10.282	-4.184	
H	3.882	9.336	-4.276	
H	3.127	10.599	-3.920	
O	-1.348	-6.766	12.594	
H	-1.727	-6.211	11.912	
H	-1.991	-7.464	12.721	
O	15.560	-8.242	0.131	
H	15.347	-7.955	1.019	
H	14.972	-8.980	-0.030	
O	3.600	4.793	-1.808	
H	3.901	5.695	-1.701	
H	4.284	4.261	-1.400	
O	1.107	17.481	10.588	
H	0.527	17.470	11.350	
H	0.917	16.662	10.131	
O	-9.438	2.516	-16.639	
H	-9.580	3.163	-17.331	
H	-9.674	1.680	-17.040	
O	-6.234	6.205	15.239	
H	-5.925	7.018	15.637	
H	-5.558	5.562	15.451	
O	-10.563	13.776	0.417	
H	-9.771	13.280	0.212	
H	-11.075	13.191	0.975	
O	-8.274	4.483	11.867	
H	-8.314	5.392	12.163	
H	-8.039	3.986	12.651	
O	6.948	-9.520	0.907	
H	6.829	-10.317	1.424	
H	6.137	-9.028	1.038	
O	1.319	4.885	-3.268	
H	2.112	4.822	-2.735	
H	0.812	4.108	-3.036	
O	18.573	9.770	-2.177	
H	18.998	9.693	-1.323	
H	17.703	9.392	-2.047	
O	0.743	0.804	3.864	
H	1.330	0.548	4.575	
H	1.248	1.433	3.349	
O	8.596	-7.622	-12.195	
H	9.274	-7.423	-12.840	
H	9.078	-7.932	-11.428	
O	-20.039	-5.126	6.428	
H	-20.359	-4.612	7.169	
H	-19.651	-5.905	6.826	
O	6.301	-0.156	-17.952	
H	6.758	-0.528	-17.197	
H	5.620	-0.795	-18.159	
O	-9.862	0.292	-12.292	
H	-10.006	0.672	-11.425	
H	-10.042	1.008	-12.901	
O	7.288	-5.957	2.222	
H	7.877	-5.211	2.335	
H	7.854	-6.666	1.917	
O	4.875	8.026	6.260	
H	4.641	8.505	5.466	
H	5.770	8.305	6.454	
O	4.232	1.331	9.764	
H	3.307	1.088	9.735	
H	4.297	1.941	10.499	
O	-6.658	-12.810	-8.460	
H	-6.274	-12.073	-7.985	
H	-5.999	-13.044	-9.113	
O	-2.067	0.923	-8.309	
H	-2.142	0.877	-7.356	
H	-2.113	0.012	-8.597	
O	7.159	-18.343	4.624	
H	7.339	-19.266	4.800	
H	7.460	-17.886	5.410	
O	1.319	-1.068	-5.381	
H	0.516	-1.573	-5.511	
H	2.011	-1.727	-5.324	
O	7.400	12.540	-0.850	
H	7.129	12.188	-1.698	
H	7.934	13.304	-1.067	
O	-0.423	13.167	-10.394	
H	-0.968	13.296	-11.170	
H	-0.236	12.228	-10.385	
O	-4.640	6.925	-1.296	
H	-5.428	6.533	-0.921	
H	-4.780	7.869	-1.216	
O	-1.973	9.295	-2.281	
H	-2.406	9.014	-3.088	
H	-1.362	8.587	-2.078	
O	-2.072	1.084	3.568	
H	-1.132	0.938	3.459	
H	-2.440	0.935	2.697	
O	-7.090	10.963	-11.658	
H	-6.663	10.287	-12.185	
H	-7.755	10.492	-11.156	
O	-1.619	7.813	7.915	
H	-1.838	8.062	7.017	
H	-1.490	6.865	7.877	
O	-5.044	3.194	-10.660	
H	-4.970	3.516	-9.761	
H	-4.690	3.903	-11.198	
O	-15.394	-10.504	-13.226	
H	-14.486	-10.200	-13.215	
H	-15.543	-10.846	-12.345	
O	-3.726	-3.054	-12.192	
H	-3.548	-2.377	-11.539	
H	-3.856	-3.852	-11.680	
O	1.985	3.519	8.610	
H	1.772	4.210	7.983	
H	1.269	2.890	8.527	
O	10.060	6.737	-13.226	
H	9.140	6.990	-13.147	
H	10.524	7.561	-13.376	
O	-7.660	2.769	3.310	
H	-6.779	2.534	3.019	
H	-8.056	3.198	2.552	
O	-8.455	8.978	-1.294	
H	-9.054	9.424	-0.696	
H	-8.670	9.331	-2.157	
O	-16.736	-4.129	13.448	
H	-17.121	-3.572	14.124	
H	-16.858	-5.021	13.773	
O	12.038	10.561	4.659	
H	12.105	10.880	5.559	
H	11.105	10.386	4.535	
O	-0.495	16.553	2.056	
H	-0.461	15.602	1.944	
H	0.241	16.881	1.539	
O	-0.820	4.885	15.388	
H	-0.846	5.054	16.329	
H	0.072	4.580	15.223	
O	6.339	-5.521	-6.036	
H	5.843	-5.483	-6.854	
H	7.237	-5.710	-6.309	
O	-5.542	11.536	4.803	
H	-5.197	12.429	4.777	
H	-5.010	11.055	4.168	
O	10.320	6.566	-1.014	
H	9.918	6.209	-1.806	
H	9.588	6.699	-0.412	
O	12.043	6.014	-10.987	
H	12.677	6.044	-11.704	
H	11.236	6.362	-11.366	
O	-19.019	13.902	-3.762	
H	-18.492	13.152	-3.490	
H	-18.819	14.012	-4.692	
O	4.317	5.720	7.608	
H	3.411	5.551	7.352	
H	4.509	6.589	7.256	
O	-18.220	-3.247	-13.363	
H	-18.253	-3.985	-13.972	
H	-17.558	-3.497	-12.718	
O	-3.505	-1.658	-1.667	
H	-2.558	-1.621	-1.532	
H	-3.789	-2.422	-1.164	
O	6.723	4.948	8.590	
H	6.837	4.123	8.118	
H	6.012	5.392	8.128	
O	3.390	5.246	-14.317	
H	2.814	4.591	-14.710	
H	3.947	5.540	-15.038	
O	-5.886	5.007	5.522	
H	-6.340	4.355	6.056	
H	-5.334	4.494	4.933	
O	-3.279	1.567	-14.323	
H	-3.701	1.262	-15.126	
H	-3.338	2.522	-14.369	
O	-15.980	-2.046	1.275	
H	-15.514	-1.213	1.212	
H	-15.294	-2.693	1.438	
O	-10.679	-2.088	9.516	
H	-11.210	-1.617	10.159	
H	-9.962	-2.464	10.026	
O	4.736	-6.281	1.617	
H	5.615	-6.175	1.979	
H	4.596	-7.227	1.599	
O	5.818	10.996	-6.012	
H	6.019	10.140	-6.391	
H	5.247	10.801	-5.269	
O	-5.736	20.867	4.428	
H	-6.308	20.735	5.184	
H	-4.851	20.853	4.791	
O	-5.617	11.918	-14.165	
H	-5.364	12.298	-15.006	
H	-5.573	12.649	-13.548	
O	14.156	-4.521	8.335	
H	13.974	-3.584	8.406	
H	14.538	-4.756	9.180	
O	-13.085	10.008	-16.864	
H	-13.160	9.057	-16.782	
H	-12.356	10.242	-16.290	
O	-3.770	28.849	-15.107	
H	-4.135	29.336	-14.369	
H	-4.149	29.265	-15.881	
O	-7.272	1.347	-10.248	
H	-6.597	1.996	-10.445	
H	-7.987	1.853	-9.864	
O	-12.319	-1.266	-0.276	
H	-12.814	-0.667	-0.835	
H	-12.906	-2.010	-0.143	
O	-7.524	2.633	-5.823	
H	-7.340	2.483	-4.896	
H	-7.133	3.487	-6.010	
O	-10.049	-3.525	-4.479	
H	-9.491	-3.151	-3.796	
H	-9.958	-2.924	-5.218	
O	-15.242	0.879	1.238	
H	-14.579	0.575	1.858	
H	-14.818	1.597	0.767	
O	-7.121	-6.972	-13.826	
H	-6.843	-6.189	-14.300	
H	-6.790	-7.701	-14.351	
O	6.502	-6.761	13.965	
H	5.822	-6.979	13.327	
H	7.322	-7.004	13.535	
O	-3.450	-2.845	-14.959	
H	-3.661	-3.081	-14.056	
H	-3.540	-1.892	-14.986	
O	9.375	5.350	-3.174	
H	10.071	4.694	-3.125	
H	8.896	5.132	-3.974	
O	6.172	-11.201	3.251	
H	6.377	-10.707	4.045	
H	5.223	-11.114	3.153	
O	3.129	-10.036	-2.350	
H	3.894	-10.324	-2.849	
H	3.308	-10.319	-1.453	
O	-9.027	16.176	11.992	
H	-8.405	16.787	11.597	
H	-8.497	15.641	12.582	
O	-3.476	-8.643	-6.855	
H	-2.766	-9.213	-7.153	
H	-4.275	-9.129	-7.060	
O	-2.141	13.137	-0.264	
H	-1.882	13.311	0.641	
H	-2.137	13.998	-0.684	
O	-11.343	4.001	-0.734	
H	-11.006	4.180	0.143	
H	-11.271	4.838	-1.194	
O	-4.413	12.077	0.978	
H	-5.103	12.705	0.763	
H	-3.651	12.380	0.484	
O	-10.167	7.708	27.654	
H	-11.100	7.868	27.800	
H	-9.728	8.437	28.092	
O	1.503	-2.750	8.053	
H	0.942	-3.514	8.185	
H	2.323	-2.974	8.493	
O	7.361	-0.652	-6.595	
H	8.046	-1.261	-6.869	
H	7.421	0.073	-7.218	
O	-4.720	13.107	-16.528	
H	-3.953	13.497	-16.108	
H	-4.796	13.565	-17.364	
O	1.953	-12.478	1.192	
H	2.120	-13.154	0.535	
H	1.231	-12.825	1.716	
O	5.721	-12.898	-12.917	
H	5.011	-13.295	-13.422	
H	6.423	-12.764	-13.554	
O	24.445	3.199	-12.963	
H	23.777	3.097	-12.285	
H	24.729	2.305	-13.156	
O	-7.074	8.704	-18.062	
H	-6.962	9.583	-17.699	
H	-7.523	8.844	-18.895	
O	-7.823	0.961	5.544	
H	-7.703	1.571	4.816	
H	-7.094	0.345	5.462	
O	14.495	-5.579	5.829	
H	14.420	-5.199	6.704	
H	14.692	-4.835	5.260	
O	-2.665	8.967	5.390	
H	-2.670	9.661	4.732	
H	-3.463	8.466	5.217	
O	12.882	-0.989	14.731	
H	13.368	-0.168	14.813	
H	12.477	-1.116	15.589	
O	-21.944	-4.771	-13.890	
H	-21.316	-5.372	-13.490	
H	-22.791	-5.204	-13.787	
O	12.880	6.884	-8.381	
H	12.562	6.559	-9.223	
H	12.589	6.230	-7.746	
O	-9.399	-10.506	-15.669	
H	-8.971	-10.145	-16.445	
H	-8.891	-11.289	-15.457	
O	5.821	-14.378	3.741	
H	5.004	-14.667	3.334	
H	6.452	-14.354	3.022	
O	-7.591	-9.221	-10.384	
H	-7.854	-8.893	-9.524	
H	-8.155	-9.979	-10.534	
O	-10.329	3.713	1.786	
H	-10.495	2.812	1.508	
H	-11.126	3.973	2.247	
O	-12.448	4.844	3.032	
H	-13.387	4.790	2.854	
H	-12.307	5.752	3.301	
O	11.878	8.598	-0.453	
H	11.346	9.075	0.184	
H	11.354	7.828	-0.674	
O	1.420	-12.695	-7.049	
H	1.736	-13.457	-7.535	
H	2.191	-12.137	-6.948	
O	-3.290	-9.951	9.981	
H	-3.177	-9.060	10.313	
H	-3.970	-10.331	10.537	
O	-6.870	-8.044	-21.868	
H	-7.175	-7.335	-22.434	
H	-5.925	-8.081	-22.015	
O	0.084	-5.031	3.104	
H	0.652	-4.610	3.750	
H	0.643	-5.156	2.338	
O	-5.006	-6.813	-2.000	
H	-5.122	-6.064	-2.586	
H	-5.829	-6.865	-1.513	
O	-4.622	-0.918	-21.264	
H	-4.038	-0.892	-22.022	
H	-5.475	-0.653	-21.610	
O	0.501	2.140	-7.199	
H	-0.052	1.528	-7.685	
H	1.348	1.700	-7.134	
O	-13.752	-4.539	12.476	
H	-14.441	-4.181	13.035	
H	-13.702	-3.933	11.737	
O	4.088	7.357	-26.326	
H	4.996	7.614	-26.169	
H	3.954	7.507	-27.262	
O	6.995	9.019	-3.604	
H	7.246	8.806	-4.502	
H	6.952	8.172	-3.159	
O	5.142	11.495	6.115	
H	5.513	11.499	5.232	
H	5.454	10.678	6.503	
O	-8.704	7.423	-11.651	
H	-9.567	7.836	-11.652	
H	-8.230	7.859	-10.943	
O	-5.024	-16.426	-11.705	
H	-4.258	-16.283	-11.149	
H	-5.727	-16.645	-11.093	
O	18.577	4.975	-5.914	
H	19.133	4.915	-5.137	
H	18.113	5.807	-5.813	
O	9.279	-7.755	0.779	
H	10.104	-8.185	0.557	
H	8.613	-8.431	0.649	
O	2.640	9.309	-7.726	
H	2.389	8.889	-6.904	
H	2.624	8.602	-8.371	
O	-0.135	6.907	-2.052	
H	-0.476	6.721	-1.178	
H	0.045	6.045	-2.428	
O	10.559	10.329	-3.255	
H	10.915	9.469	-3.034	
H	11.241	10.947	-2.993	
O	4.010	20.959	8.654	
H	3.645	20.520	9.422	
H	4.800	21.391	8.977	
O	2.159	10.721	-16.773	
H	1.960	9.790	-16.868	
H	2.376	11.012	-17.659	
O	-1.778	5.513	-0.092	
H	-1.917	5.171	0.791	
H	-2.425	5.058	-0.631	
O	6.854	6.645	-2.467	
H	7.784	6.533	-2.269	
H	6.412	5.994	-1.922	
O	-9.904	-2.054	-0.503	
H	-9.651	-1.414	-1.168	
H	-10.820	-1.852	-0.312	
O	11.060	0.387	8.184	
H	11.744	0.529	7.530	
H	11.241	1.036	8.865	
O	13.032	-5.580	-10.629	
H	13.272	-4.780	-10.159	
H	12.150	-5.408	-10.959	
O	-0.350	0.056	-2.958	
H	0.555	-0.069	-3.242	
H	-0.387	-0.343	-2.089	
O	9.103	0.813	-12.524	
H	8.667	0.465	-13.302	
H	9.721	0.129	-12.269	
O	-17.821	0.261	-0.319	
H	-17.183	0.519	0.347	
H	-17.688	-0.681	-0.426	
O	-11.150	5.721	7.509	
H	-11.704	5.194	6.933	
H	-10.304	5.756	7.063	
O	-1.877	6.407	4.206	
H	-1.184	6.817	3.687	
H	-2.138	7.082	4.833	
O	-9.050	4.597	5.100	
H	-9.228	5.273	4.446	
H	-8.568	3.922	4.622	
O	4.046	-7.570	-2.466	
H	3.639	-8.428	-2.347	
H	4.744	-7.722	-3.104	
O	0.785	7.619	5.517	
H	0.517	7.334	4.643	
H	0.939	8.559	5.426	
O	-2.643	-5.759	-6.859	
H	-1.943	-5.523	-7.468	
H	-2.762	-6.701	-6.983	
O	10.322	13.388	-1.352	
H	11.108	12.841	-1.362	
H	9.619	12.793	-1.091	
O	3.571	13.495	6.883	
H	3.851	13.889	7.709	
H	4.179	12.767	6.748	
O	4.597	-9.730	9.104	
H	5.161	-9.502	9.843	
H	3.790	-10.049	9.509	
O	-3.360	-3.499	-5.272	
H	-4.190	-3.788	-4.893	
H	-3.133	-4.182	-5.902	
O	-3.246	1.136	-1.358	
H	-2.942	0.645	-2.122	
H	-3.024	2.047	-1.555	
O	-6.324	11.875	-4.073	
H	-6.153	11.285	-3.340	
H	-5.509	11.874	-4.576	
O	9.171	5.909	-8.295	
H	9.286	5.229	-7.631	
H	9.026	5.428	-9.109	
O	-5.807	0.259	-1.331	
H	-4.860	0.404	-1.320	
H	-5.925	-0.584	-0.895	
O	5.623	-7.822	-4.750	
H	5.713	-8.343	-5.548	
H	5.956	-6.957	-4.989	
O	-9.794	12.262	5.052	
H	-10.662	12.565	5.320	
H	-9.387	13.028	4.648	
O	-11.241	-8.711	-7.699	
H	-10.947	-8.454	-8.573	
H	-11.268	-7.893	-7.204	
O	-7.447	-4.981	2.178	
H	-7.526	-4.386	2.924	
H	-8.164	-4.730	1.595	
O	9.638	3.300	-11.714	
H	9.117	2.526	-11.928	
H	10.115	3.499	-12.520	
O	9.093	7.763	2.705	
H	8.709	7.189	2.043	
H	8.640	7.532	3.516	
O	-9.111	10.707	-3.404	
H	-9.508	11.577	-3.450	
H	-8.396	10.736	-4.039	
O	14.263	-0.152	7.422	
H	14.218	-0.598	8.268	
H	14.779	-0.739	6.869	
O	-15.879	-12.679	-3.980	
H	-15.267	-13.315	-3.611	
H	-16.527	-13.210	-4.443	
O	-0.098	1.972	7.806	
H	0.429	1.213	8.055	
H	-0.691	1.641	7.132	
O	0.175	-14.850	10.430	
H	0.236	-15.620	9.864	
H	-0.709	-14.513	10.281	
O	4.911	-15.259	-14.944	
H	5.595	-15.382	-15.602	
H	4.279	-14.672	-15.360	
O	9.234	-4.965	-4.221	
H	8.945	-5.861	-4.048	
H	8.678	-4.421	-3.664	
O	9.545	-16.021	-8.598	
H	9.993	-15.947	-7.755	
H	9.329	-16.951	-8.674	
O	-9.379	-2.438	5.931	
H	-8.815	-2.058	5.257	
H	-8.787	-2.958	6.474	
O	11.043	-15.463	13.725	
H	10.375	-14.986	13.232	
H	10.684	-15.532	14.610	
O	14.029	-14.344	0.117	
H	13.959	-14.020	1.015	
H	13.527	-15.159	0.116	
O	-8.917	2.585	-8.270	
H	-8.419	2.601	-7.452	
H	-9.071	3.507	-8.475	
O	7.701	-2.221	-1.730	
H	7.132	-2.863	-2.155	
H	8.061	-2.683	-0.973	
O	3.336	8.835	2.315	
H	4.139	8.374	2.073	
H	2.754	8.714	1.565	
O	-12.671	-5.769	-4.147	
H	-12.264	-4.914	-4.005	
H	-13.557	-5.673	-3.797	
O	-2.835	16.068	-0.853	
H	-2.242	16.479	-1.482	
H	-3.698	16.422	-1.070	
O	-1.272	-0.666	11.094	
H	-1.235	0.164	10.619	
H	-2.013	-0.568	11.691	
O	-7.439	-10.318	-17.539	
H	-7.854	-10.164	-18.387	
H	-7.323	-11.267	-17.496	
O	3.468	-4.325	14.236	
H	2.599	-4.678	14.045	
H	3.590	-3.625	13.595	
O	2.492	-5.568	4.639	
H	2.450	-4.613	4.593	
H	3.137	-5.747	5.324	
O	11.009	7.217	8.222	
H	11.187	7.392	9.146	
H	11.825	6.846	7.887	
O	-10.456	-11.304	-3.746	
H	-10.070	-10.581	-3.250	
H	-11.028	-10.878	-4.384	
O	5.269	-5.473	-1.138	
H	5.276	-5.816	-0.244	
H	5.002	-6.217	-1.678	
O	-4.438	17.390	4.535	
H	-3.570	17.768	4.392	
H	-4.556	16.779	3.808	
O	6.146	-1.755	-9.634	
H	5.244	-1.816	-9.321	
H	6.063	-1.560	-10.567	
O	8.224	-13.294	-8.306	
H	8.673	-14.088	-8.595	
H	7.367	-13.598	-8.008	
O	-7.177	-3.861	-6.440	
H	-6.852	-4.372	-7.181	
H	-7.681	-3.152	-6.839	
O	-3.409	10.454	3.034	
H	-2.964	9.839	2.451	
H	-3.917	11.015	2.448	
O	-10.624	-4.829	-13.130	
H	-11.007	-5.268	-12.371	
H	-10.322	-3.986	-12.792	
O	3.387	-11.165	3.162	
H	3.029	-11.786	2.528	
H	2.631	-10.888	3.680	
O	4.790	-0.338	-6.032	
H	4.389	-1.206	-5.990	
H	5.731	-0.510	-6.057	
O	-3.991	-8.551	1.690	
H	-3.525	-8.730	0.873	
H	-4.062	-7.597	1.723	
O	14.119	-2.320	-11.845	
H	13.746	-2.127	-10.985	
H	14.464	-1.482	-12.151	
O	-4.709	6.006	7.931	
H	-4.986	6.167	7.029	
H	-5.510	6.091	8.447	
O	-9.239	2.310	-1.648	
H	-8.811	2.557	-0.828	
H	-10.076	2.774	-1.631	
O	1.970	5.532	-11.785	
H	1.334	5.803	-12.446	
H	2.798	5.463	-12.261	
O	2.694	-13.481	10.611	
H	2.227	-14.303	10.758	
H	2.591	-13.311	9.674	
O	-9.745	-4.240	1.227	
H	-10.412	-4.741	0.758	
H	-9.920	-3.329	0.992	
O	7.879	-16.696	18.687	
H	8.823	-16.852	18.694	
H	7.555	-17.218	17.953	
O	6.899	-10.548	7.546	
H	6.170	-10.402	8.148	
H	7.581	-9.946	7.843	
O	14.110	-15.326	-8.244	
H	13.830	-16.234	-8.132	
H	13.407	-14.808	-7.852	
O	-3.568	10.927	12.681	
H	-4.203	10.608	12.040	
H	-3.174	10.133	13.043	
O	-19.947	2.571	0.116	
H	-19.469	1.813	0.453	
H	-20.394	2.933	0.881	
O	10.255	3.804	8.357	
H	10.892	4.204	7.766	
H	10.661	3.858	9.222	
O	8.099	1.128	4.588	
H	8.883	0.647	4.325	
H	7.768	0.651	5.349	
O	-14.492	-2.259	-6.671	
H	-14.006	-1.899	-7.413	
H	-14.590	-3.188	-6.877	
O	1.473	-6.964	-0.909	
H	1.534	-6.033	-0.694	
H	2.320	-7.176	-1.300	
O	-8.502	-2.242	-8.167	
H	-8.829	-1.436	-7.767	
H	-7.741	-1.966	-8.677	
O	2.028	-0.237	13.497	
H	1.897	-0.692	14.329	
H	2.638	-0.794	13.013	
O	3.242	16.078	15.627	
H	4.167	15.880	15.483	
H	3.246	16.828	16.221	
O	9.403	4.167	2.950	
H	8.943	3.403	2.602	
H	9.259	4.124	3.896	
O	-23.293	-1.557	-8.610	
H	-24.135	-1.555	-8.153	
H	-22.650	-1.360	-7.929	
O	1.177	4.758	-6.921	
H	0.958	3.983	-7.438	
H	1.098	4.470	-6.011	
O	14.620	-5.716	-2.018	
H	15.192	-4.949	-2.045	
H	14.624	-6.050	-2.915	
O	-4.967	-5.967	-22.975	
H	-4.516	-5.372	-23.575	
H	-5.504	-5.395	-22.428	
O	-3.231	-11.051	5.577	
H	-3.344	-10.885	4.641	
H	-2.420	-11.555	5.636	
O	-10.747	0.990	1.254	
H	-10.918	0.534	2.078	
H	-10.904	0.331	0.577	
O	10.490	-11.851	2.110	
H	10.733	-12.163	2.982	
H	10.892	-10.985	2.045	
O	-7.417	-6.098	-0.512	
H	-7.098	-5.836	0.351	
H	-7.980	-6.853	-0.341	
O	14.000	3.625	-4.228	
H	14.761	3.880	-3.706	
H	14.017	2.668	-4.225	
O	-8.293	-11.713	-1.004	
H	-7.516	-11.288	-1.367	
H	-8.594	-12.298	-1.699	
O	13.851	1.673	-9.868	
H	13.275	2.437	-9.830	
H	14.403	1.750	-9.089	
O	6.037	11.487	21.553	
H	5.187	11.386	21.123	
H	6.477	10.648	21.415	
O	-1.939	-3.241	3.096	
H	-1.218	-3.848	2.929	
H	-1.691	-2.790	3.903	
O	10.384	0.066	3.676	
H	10.325	-0.783	4.115	
H	11.308	0.305	3.739	
O	10.224	12.474	-16.285	
H	10.749	11.676	-16.352	
H	10.868	13.181	-16.240	
O	12.313	5.098	-6.425	
H	11.801	4.302	-6.565	
H	13.087	4.805	-5.945	
O	-15.172	-8.276	-9.696	
H	-14.305	-8.643	-9.522	
H	-15.775	-8.850	-9.223	
O	-5.266	-1.147	6.159	
H	-5.022	-1.019	5.243	
H	-4.823	-1.956	6.414	
O	-8.117	-2.930	-2.404	
H	-8.077	-2.001	-2.631	
H	-8.577	-2.953	-1.565	
O	-4.301	-3.178	-9.305	
H	-4.580	-4.017	-8.938	
H	-5.111	-2.679	-9.408	
O	2.632	1.037	-2.351	
H	3.182	1.288	-3.093	
H	3.001	1.513	-1.607	
O	8.243	3.815	5.570	
H	8.112	2.985	5.112	
H	8.741	3.582	6.353	
O	8.472	14.705	-7.749	
H	7.622	14.270	-7.687	
H	9.110	14.013	-7.572	
O	-9.004	7.391	-14.807	
H	-8.178	7.722	-14.453	
H	-8.749	6.893	-15.585	
O	13.479	-13.015	13.775	
H	13.694	-13.867	13.394	
H	13.338	-12.444	13.020	
O	10.766	2.810	-6.157	
H	10.399	2.313	-6.888	
H	10.543	2.295	-5.381	
O	-0.070	-7.698	17.200	
H	0.002	-7.941	18.123	
H	-0.529	-8.432	16.793	
O	2.547	18.022	-6.913	
H	2.299	17.982	-5.990	
H	1.766	17.732	-7.385	
O	11.862	-2.721	-4.168	
H	12.690	-2.389	-4.515	
H	11.200	-2.402	-4.781	
O	-12.541	15.991	-0.055	
H	-12.815	16.048	-0.971	
H	-12.234	15.090	0.047	
O	12.258	-3.859	-1.853	
H	11.963	-3.512	-2.695	
H	13.093	-4.284	-2.047	
O	-1.463	8.527	-8.139	
H	-0.819	8.959	-7.577	
H	-1.691	7.725	-7.669	
O	-0.977	5.091	8.281	
H	-0.442	4.311	8.130	
H	-1.853	4.749	8.464	
O	6.646	-20.788	-7.340	
H	7.090	-19.958	-7.514	
H	6.253	-20.673	-6.474	
O	-4.597	4.505	-8.234	
H	-3.804	4.000	-8.053	
H	-5.015	4.611	-7.380	
O	-8.677	-5.385	-9.251	
H	-9.126	-6.142	-9.627	
H	-9.382	-4.784	-9.008	
O	4.122	-8.891	1.019	
H	3.598	-9.068	1.801	
H	4.194	-9.739	0.582	
O	6.003	8.690	-10.691	
H	5.786	9.621	-10.636	
H	5.425	8.349	-11.374	
O	-10.941	-10.953	-13.723	
H	-11.733	-10.453	-13.526	
H	-10.556	-10.505	-14.477	
O	-8.538	5.544	-3.264	
H	-8.234	6.087	-3.991	
H	-7.881	5.669	-2.579	
O	0.869	16.781	4.702	
H	1.570	17.407	4.520	
H	0.401	16.698	3.871	
O	2.928	2.453	12.066	
H	2.314	3.157	12.276	
H	2.826	1.825	12.781	
O	3.621	7.611	-4.513	
H	3.824	6.741	-4.856	
H	2.671	7.688	-4.599	
O	16.315	-10.080	4.272	
H	15.477	-9.650	4.438	
H	16.820	-9.437	3.774	
O	0.847	-3.881	-0.441	
H	1.377	-3.863	0.356	
H	0.309	-3.091	-0.389	
O	11.421	-4.182	5.017	
H	11.686	-3.326	5.355	
H	10.928	-4.581	5.733	
O	-4.111	9.153	7.971	
H	-3.706	9.412	7.143	
H	-3.804	8.259	8.119	
O	6.206	15.651	11.134	
H	7.037	15.940	11.510	
H	5.775	15.173	11.843	
O	9.116	-4.245	3.412	
H	10.046	-4.381	3.593	
H	8.810	-3.691	4.130	
O	20.021	5.462	12.014	
H	19.720	6.337	12.262	
H	20.931	5.428	12.309	
O	-3.855	11.005	15.633	
H	-2.981	10.712	15.891	
H	-3.785	11.171	14.693	
O	7.342	1.251	-8.693	
H	6.724	0.981	-9.372	
H	7.049	2.125	-8.434	
O	12.554	-5.961	-0.003	
H	12.982	-5.973	-0.859	
H	12.618	-6.864	0.310	
O	14.565	-8.822	-2.995	
H	13.620	-8.673	-3.039	
H	14.942	-7.945	-2.921	
O	-6.021	-5.225	-15.751	
H	-5.753	-6.000	-16.244	
H	-5.388	-4.551	-15.999	
O	10.853	7.494	-6.044	
H	11.216	6.642	-6.285	
H	11.421	7.806	-5.340	
O	13.044	-6.242	-6.641	
H	13.178	-5.336	-6.921	
H	12.309	-6.197	-6.030	
O	-0.744	10.609	-5.936	
H	-1.015	11.236	-5.265	
H	-0.109	11.086	-6.469	
O	-0.838	-12.692	-2.422	
H	-1.357	-13.496	-2.412	
H	-1.123	-12.212	-1.644	
O	-6.047	-5.620	-8.617	
H	-5.659	-6.135	-9.326	
H	-6.983	-5.604	-8.816	
O	6.146	-11.073	-6.735	
H	5.224	-10.897	-6.920	
H	6.174	-12.006	-6.523	
O	6.700	2.317	-2.482	
H	6.458	1.589	-1.910	
H	6.016	2.333	-3.151	
O	6.570	-0.422	-14.670	
H	5.769	0.065	-14.863	
H	6.267	-1.219	-14.235	
O	12.867	0.913	-4.302	
H	13.066	0.281	-3.611	
H	11.912	0.914	-4.358	
O	0.853	7.108	-5.076	
H	0.912	6.378	-4.460	
H	0.349	6.761	-5.811	
O	1.760	-0.075	8.201	
H	1.632	-1.023	8.183	
H	2.003	0.117	9.106	
O	0.251	-8.303	-4.736	
H	-0.350	-8.012	-4.051	
H	1.013	-7.732	-4.645	
O	6.403	-7.224	-16.748	
H	7.297	-7.083	-17.059	
H	5.968	-7.681	-17.467	
O	-9.197	-0.529	21.892	
H	-9.142	0.313	22.345	
H	-8.648	-0.420	21.116	
O	-10.526	-1.510	-6.207	
H	-9.860	-0.823	-6.198	
H	-11.259	-1.128	-6.689	
O	6.030	-5.792	10.042	
H	6.060	-6.471	9.368	
H	6.336	-6.230	10.836	
O	-15.801	-8.484	9.471	
H	-15.713	-9.241	10.050	
H	-16.530	-7.983	9.839	
O	4.692	4.722	-11.754	
H	4.576	4.137	-12.503	
H	5.381	5.327	-12.028	
O	16.097	0.034	-6.065	
H	16.394	0.942	-5.997	
H	16.706	-0.459	-5.515	
O	8.068	9.074	-13.123	
H	7.738	8.981	-12.229	
H	8.116	10.020	-13.264	
O	-9.683	12.710	-8.802	
H	-8.883	12.239	-8.570	
H	-9.970	12.307	-9.622	
O	-7.268	-18.265	-0.872	
H	-7.454	-18.720	-0.050	
H	-7.691	-17.412	-0.775	
O	4.444	2.054	-4.204	
H	4.688	1.361	-4.818	
H	4.255	2.810	-4.760	
O	3.827	-1.733	-18.488	
H	3.021	-2.147	-18.180	
H	4.416	-2.464	-18.673	
O	-5.936	14.366	-0.406	
H	-6.677	14.845	-0.035	
H	-5.923	14.621	-1.328	
O	-14.030	3.174	0.022	
H	-13.095	3.378	-0.012	
H	-14.464	4.021	-0.082	
O	5.672	-7.712	16.300	
H	6.019	-7.421	15.456	
H	6.253	-7.314	16.948	
O	-4.263	-10.124	-4.548	
H	-5.096	-9.893	-4.137	
H	-3.846	-9.283	-4.734	
O	-4.442	0.946	7.508	
H	-5.149	1.587	7.438	
H	-4.782	0.164	7.073	
O	-6.552	3.111	7.370	
H	-6.806	3.747	8.038	
H	-7.290	2.503	7.324	
O	13.557	11.321	2.528	
H	12.934	10.917	3.132	
H	14.142	11.829	3.090	
O	3.353	0.749	-7.989	
H	3.846	0.442	-7.229	
H	3.986	1.257	-8.497	
O	8.513	-7.618	-3.895	
H	7.902	-7.713	-3.164	
H	8.797	-8.512	-4.087	
O	4.166	-11.279	-0.224	
H	4.911	-11.880	-0.258	
H	3.437	-11.818	0.084	
O	-11.385	8.727	-3.846	
H	-10.604	9.225	-3.605	
H	-11.507	8.909	-4.778	
O	12.437	-12.845	-1.737	
H	13.185	-12.505	-2.228	
H	12.814	-13.497	-1.146	
O	-8.592	-9.745	-7.721	
H	-9.056	-10.550	-7.952	
H	-9.278	-9.154	-7.409	
O	5.208	1.213	-21.813	
H	6.080	0.862	-21.635	
H	4.608	0.540	-21.493	
O	-8.234	11.323	-14.815	
H	-7.421	11.364	-14.312	
H	-7.955	11.129	-15.709	
O	13.536	6.292	-2.245	
H	13.204	6.903	-2.903	
H	14.486	6.405	-2.269	
O	2.522	3.339	4.513	
H	3.432	3.635	4.492	
H	2.538	2.553	5.060	
O	3.684	16.734	6.945	
H	4.009	16.422	7.790	
H	2.732	16.752	7.047	
O	-8.316	-14.385	-6.807	
H	-9.032	-14.524	-7.427	
H	-7.658	-13.901	-7.305	
O	-7.590	16.302	-4.688	
H	-8.410	16.761	-4.506	
H	-7.094	16.906	-5.241	
O	18.246	-16.582	2.422	
H	17.506	-17.140	2.663	
H	18.846	-16.646	3.165	
O	6.311	9.411	-0.307	
H	6.267	9.295	-1.257	
H	6.986	10.078	-0.178	
O	12.222	3.892	-18.821	
H	12.173	4.046	-19.765	
H	12.423	2.960	-18.740	
O	17.006	-1.811	3.973	
H	17.689	-2.481	3.971	
H	17.230	-1.236	3.241	
O	11.656	15.072	12.221	
H	11.542	16.004	12.032	
H	11.869	15.041	13.154	
O	-1.973	4.030	2.502	
H	-1.776	4.832	2.986	
H	-1.183	3.497	2.589	
O	13.517	-0.755	3.327	
H	14.408	-1.104	3.314	
H	12.991	-1.422	2.886	
O	-2.770	-0.235	1.176	
H	-2.123	-0.899	0.937	
H	-3.029	0.159	0.343	
O	-10.286	-7.795	-10.037	
H	-10.139	-8.242	-10.871	
H	-10.843	-7.049	-10.259	
O	7.008	15.529	-1.920	
H	6.377	15.267	-2.590	
H	6.801	14.977	-1.166	
O	11.990	17.581	5.249	
H	11.578	17.841	4.425	
H	12.735	18.174	5.342	
O	11.827	-9.539	2.640	
H	11.618	-8.610	2.730	
H	12.483	-9.571	1.944	
O	2.179	8.795	-11.113	
H	1.678	8.028	-10.834	
H	2.770	8.462	-11.789	
O	-3.387	-3.537	-23.813	
H	-2.534	-3.705	-24.214	
H	-3.181	-3.198	-22.942	
O	6.741	-1.665	3.066	
H	7.068	-0.843	3.431	
H	7.433	-1.957	2.472	
O	-2.140	-5.270	6.386	
H	-1.755	-6.007	6.860	
H	-2.264	-5.596	5.494	
O	-10.585	15.743	4.771	
H	-11.400	16.141	4.464	
H	-10.621	15.826	5.724	
O	-2.662	10.882	-14.816	
H	-3.004	10.166	-15.352	
H	-3.419	11.447	-14.660	
O	3.491	-14.115	-0.531	
H	4.440	-14.200	-0.627	
H	3.140	-14.928	-0.894	
O	8.594	-6.349	6.467	
H	8.120	-6.334	5.635	
H	8.734	-5.426	6.679	
O	5.585	2.270	-17.071	
H	5.040	2.006	-16.329	
H	5.880	1.445	-17.457	
O	9.759	-9.916	-4.410	
H	9.477	-10.433	-5.164	
H	10.052	-10.565	-3.770	
O	11.235	4.532	10.860	
H	12.024	5.012	11.111	
H	10.570	5.210	10.738	
O	12.249	14.023	-5.599	
H	11.303	13.876	-5.589	
H	12.383	14.684	-6.278	
O	-4.289	6.069	20.624	
H	-4.001	6.835	20.127	
H	-4.479	6.407	21.499	
O	1.584	0.101	-13.718	
H	1.777	0.258	-12.794	
H	0.732	-0.336	-13.714	
O	-6.034	-2.023	0.113	
H	-5.300	-2.613	0.280	
H	-6.573	-2.485	-0.529	
O	4.401	-5.116	16.629	
H	3.679	-5.599	17.032	
H	4.084	-4.898	15.753	
O	-10.032	-7.273	2.528	
H	-9.583	-6.430	2.476	
H	-9.836	-7.597	3.407	
O	4.460	15.375	4.559	
H	4.079	14.512	4.399	
H	4.025	15.686	5.353	
O	1.696	-12.919	-3.482	
H	0.866	-12.885	-3.005	
H	1.681	-12.145	-4.045	
