     Steps   Accepted                 E_mm      dE_mm                mE_mm      sE_mm
         0          0           -17817.000    0.00000           -17817.000    0.00000
       100         29           -17741.415    0.25206           -17787.023   22.73186
       200         59           -17686.376    0.00000           -17750.897   41.53396
       300         91           -17630.905    0.00000           -17720.948   55.20173
       400        123           -18385.518    0.00000           -17833.853  267.72881
       500        146           -18341.373    0.00000           -17938.925  318.86751
       600        174           -18285.638    0.00000           -18000.914  322.57945
       700        207           -18239.135    0.03595           -18037.964  312.23110
       800        245           -18197.760    0.00000           -18059.825  297.80833
       900        274           -18158.603    0.00000           -18072.600  283.13578
      1000        307           -18394.099    0.00000           -18100.498  283.73154
      1100        340           -22571.202    0.89082           -18192.069  616.89517
      1200        373           -22542.242   -0.04870           -18555.229 1341.99128
      1300        410           -22493.404    1.21743           -18859.884 1666.50134
      1400        438           -22478.879    0.00000           -19118.902 1857.91301
      1500        476           -22433.825    4.26761           -19341.450 1978.82898
      1600        516           -22405.824    0.00000           -19534.001 2056.13533
      1700        546           -22373.573    0.00000           -19701.751 2104.67976
      1800        582           -22360.756    0.00000           -19849.766 2134.56935
      1900        620           -22319.212    8.49188           -19981.149 2151.18215
      2000        657           -22326.194    0.00000           -20097.543 2157.28228
      2100        683           -22307.676    0.00000           -20203.174 2157.69082
      2200        715           -22260.366    0.00000           -20297.667 2152.14177
      2300        742           -22235.460    0.00000           -20382.657 2142.29134
      2400        791           -22213.075   -0.05568           -20459.478 2129.33299
      2500        829           -22177.542    0.00000           -20528.643 2113.67817
      2600        859           -22160.983    0.00000           -20591.534 2096.37600
      2700        890           -22603.855    0.00000           -20659.100 2086.31024
      2800        924           -22583.538    0.00000           -20728.379 2080.12748
      2900        969           -22508.392    2.69822           -20791.237 2070.86236
      3000       1004           -22475.331    0.16292           -20847.944 2058.84928
      3100       1033           -22451.137    0.00000           -20899.819 2045.21996
      3200       1071           -22439.514    0.06630           -20948.047 2030.85660
      3300       1103           -22399.609    0.00000           -20992.440 2015.57002
      3400       1142           -22387.449    0.00000           -21033.570 1999.72885
      3500       1178           -22383.624    0.00000           -21072.053 1983.69855
      3600       1216           -22360.472    1.01224           -21108.050 1967.52387
      3700       1248           -22354.393    0.00000           -21141.871 1951.34439
      3800       1281           -22323.229    0.00000           -21173.419 1935.04571
      3900       1319           -22273.752    0.00000           -21202.159 1918.28544
      4000       1349           -22286.836   -0.40923           -21229.194 1901.67294
      4100       1392           -22249.157   -0.30824           -21254.570 1885.19080
      4200       1417           -22245.764    0.09660           -21278.170 1868.74000
      4300       1460           -22232.675   -0.83734           -21300.492 1852.54604
      4400       1484           -22208.844    0.00000           -21321.437 1836.52303
      4500       1519           -22169.463    0.00000           -21340.793 1820.54159
      4600       1555           -22145.944    0.00000           -21358.467 1804.54894
      4700       1599           -22110.779    0.00000           -21374.842 1788.70504
      4800       1624           -22087.769    0.00000           -21389.920 1772.99528
      4900       1665           -22101.637    0.31215           -21404.319 1757.64842
      5000       1700           -22065.522    0.00000           -21417.979 1742.61347
      5100       1736           -22033.362   -0.65874           -21430.160 1727.59695
      5200       1764           -22013.821    0.00000           -21441.639 1712.87161
      5300       1801           -22016.512    0.00000           -21452.493 1698.44318
      5400       1847           -22036.401    0.37481           -21463.044 1684.39936
      5500       1880           -22025.817    0.83858           -21473.486 1670.78236
      5600       1913           -22026.104    0.00000           -21483.395 1657.43092
      5700       1954           -21994.367    2.80277           -21492.704 1644.30743
      5800       1994           -21982.280   -1.41191           -21501.162 1631.32376
      5900       2034           -21971.176    0.00000           -21509.220 1618.60678
      6000       2071           -21964.563    0.14745           -21516.848 1606.13336
      6100       2101           -21946.515    0.00000           -21524.107 1593.90840
      6200       2142           -21926.854    0.00000           -21530.800 1581.86850
      6300       2173           -21921.105   -0.70593           -21536.993 1570.02355
      6400       2219           -21907.627    0.00000           -21542.844 1558.40387
      6500       2254           -21912.542    0.00000           -21548.340 1546.99731
      6600       2291           -21908.773   -2.55172           -21553.848 1535.87694
      6700       2319           -21896.203    0.00000           -21558.995 1524.94729
      6800       2363           -21892.704    0.00000           -21564.032 1514.25620
      6900       2411           -21896.663    0.00000           -21568.916 1503.78448
      7000       2453           -21879.242    6.60363           -21573.467 1493.48499
      7100       2491           -21869.255    0.00000           -21577.798 1483.37452
      7200       2537           -21886.738    0.00000           -21582.062 1473.47722
      7300       2575           -21882.413    0.00000           -21586.239 1463.78093
      7400       2624           -21854.974    0.00000           -21590.090 1454.23080
      7500       2655           -22166.276    0.00000           -21593.634 1444.83550
      7600       2692           -22196.517   -0.89734           -21601.410 1436.87984
      7700       2730           -22202.732    0.00000           -21609.095 1429.09156
      7800       2764           -22181.678    0.00488           -21616.648 1421.44897
      7900       2804           -22167.445   -1.58784           -21623.694 1413.79542
      8000       2838           -22155.382    0.00000           -21630.438 1406.21094
      8100       2871           -22119.889    0.00000           -21636.732 1398.63900
      8200       2911           -22118.383    0.00000           -21642.618 1391.09463
      8300       2955           -22118.566    0.00000           -21648.375 1383.67284
      8400       2992           -22124.432    0.00000           -21653.947 1376.34969
      8500       3034           -22121.967    0.00000           -21659.409 1369.14618
      8600       3068           -22101.975    0.00000           -21664.699 1362.03740
      8700       3107           -22101.235    0.00000           -21669.671 1354.97283
      8800       3149           -22048.793    0.29550           -21674.239 1347.92835
      8900       3189           -22021.762    4.83004           -21678.347 1340.88903
      9000       3234           -22022.036    0.00000           -21682.081 1333.88524
      9100       3275           -22018.892    5.02728           -21685.930 1327.03945
      9200       3310           -22019.983   -3.03751           -21689.485 1320.24410
      9300       3345           -21997.116    0.00000           -21692.995 1313.55941
      9400       3384           -21986.340   -0.81942           -21696.102 1306.89803
      9500       3428           -21974.517    0.00000           -21699.196 1300.34854
      9600       3471           -21985.488    0.00000           -21702.146 1293.87855
      9700       3512           -21962.410    0.00000           -21704.907 1287.47720
      9800       3560           -21978.248   -0.96550           -21707.653 1281.17796
      9900       3596           -22110.018    0.00000           -21711.301 1275.21537
     10000       3629           -22097.185    0.00000           -21715.318 1269.45342
     10100       3669           -22062.943    1.39846           -21718.938 1263.67302
     10200       3703           -22069.293    0.00000           -21722.410 1257.94828
     10300       3738           -22068.874    0.51953           -21725.763 1252.28536
     10400       3776           -22053.417    0.00000           -21728.998 1246.68329
     10500       3815           -22128.442    0.00000           -21732.447 1241.23938
     10600       3853           -22102.037    0.00000           -21736.059 1235.92575
     10700       3894           -22103.401    0.00000           -21739.434 1230.62834
     10800       3932           -22121.031    0.00000           -21742.847 1225.42704
     10900       3973           -22110.362    0.00000           -21746.234 1220.30132
     11000       4022           -22097.188   -1.20514           -21749.449 1215.20629
     11100       4063           -22090.049    0.00000           -21752.584 1210.16742
     11200       4102           -22089.086    0.00000           -21755.628 1205.18010
     11300       4136           -22106.108    0.00000           -21758.629 1200.25663
     11400       4181           -22124.667   -0.78555           -21761.743 1195.44000
     11500       4217           -22099.723    0.00000           -21764.804 1190.68034
     11600       4253           -22079.869    0.00000           -21767.680 1185.93905
     11700       4299           -22087.727    0.00000           -21770.405 1181.22501
     11800       4335           -22073.006   -0.08680           -21773.016 1176.54866
     11900       4378           -22074.547    0.00000           -21775.475 1171.89994
     12000       4423           -22077.148    2.83718           -21777.998 1167.33166
     12100       4464           -22057.065   -1.36791           -21780.393 1162.79457
     12200       4507           -22057.831   -0.10928           -21782.653 1158.28653
     12300       4552           -22045.258    0.00000           -21784.837 1153.82099
     12400       4592           -22023.729    0.00000           -21786.870 1149.38071
     12500       4632           -22028.681    0.00000           -21788.747 1144.96513
     12600       4672           -22020.236    0.44040           -21790.630 1140.60728
     12700       4714           -22024.919    0.00000           -21792.477 1136.29767
     12800       4751           -22005.961    0.00000           -21794.214 1132.01987
     12900       4786           -21985.527    0.00000           -21795.847 1127.77580
     13000       4831           -21985.327    0.00000           -21797.339 1123.55804
     13100       4871           -21969.708    0.00000           -21798.710 1119.37103
     13200       4924           -21952.587    0.00000           -21799.932 1115.21104
     13300       4960           -21920.774    1.47881           -21800.980 1111.07634
     13400       5002           -21895.194    0.00000           -21801.790 1106.96268
     13500       5041           -21892.594    0.00000           -21802.420 1102.87964
     13600       5090           -21861.771   -0.21802           -21803.033 1098.84131
     13700       5133           -21854.445    0.00000           -21803.402 1094.83243
     13800       5179           -21848.537   -0.54346           -21803.727 1090.86546
     13900       5219           -21859.060    0.00000           -21804.077 1086.94250
     14000       5260           -21834.144    0.00000           -21804.348 1083.05884
     14100       5293           -21824.646    0.00000           -21804.524 1079.21376
     14200       5338           -21808.932    0.00000           -21804.577 1075.40758
     14300       5369           -21812.222    0.36240           -21804.606 1071.64116
     14400       5406           -21788.283    0.00000           -21804.516 1067.91462
     14500       5446           -21768.674   -0.22486           -21804.389 1064.22758
     14600       5487           -21781.627    0.00000           -21804.177 1060.58007
     14700       5528           -21775.618    0.00000           -21803.995 1056.96933
     14800       5565           -21769.916    0.00000           -21803.806 1053.39526
     14900       5603           -21773.286   -1.60504           -21803.595 1049.85787
     15000       5642           -21777.666   -0.84623           -21803.429 1046.35479
     15100       5685           -21773.363   -1.80438           -21803.234 1042.88729
     15200       5731           -21753.594    0.66897           -21803.003 1039.45537
     15300       5779           -21749.214    0.00000           -21802.657 1036.06193
     15400       5811           -21729.545   -3.02046           -21802.249 1032.70533
     15500       5849           -21698.735    0.00000           -21801.651 1029.39586
     15600       5889           -21672.548    4.49433           -21800.930 1026.13092
     15700       5930           -21691.659    0.00000           -21800.185 1022.90045
     15800       5967           -21704.490    0.00000           -21799.531 1019.69156
     15900       6013           -21714.356   -1.60257           -21798.937 1016.50764
     16000       6058           -21686.013    0.59730           -21798.376 1013.35148
     16100       6091           -21688.610    0.00000           -21797.711 1010.23479
     16200       6136           -21669.787   -1.88991           -21796.980 1007.15497
     16300       6172           -21672.809    0.00000           -21796.183 1004.11226
     16400       6207           -21644.435   -1.73565           -21795.347 1001.10384
     16500       6246           -21643.489    0.00000           -21794.416  998.13704
     16600       6278           -21642.728   -1.67134           -21793.469  995.20073
     16700       6321           -21629.728   -1.25508           -21792.463  992.30157
     16800       6354           -21623.990    0.53968           -21791.477  989.42615
     16900       6386           -21622.836    0.00000           -21790.435  986.58727
     17000       6421           -21628.507   -5.96206           -21789.468  983.76177
     17100       6467           -21617.746    0.00000           -21788.487  980.96470
     17200       6504           -21623.580    0.00000           -21787.447  978.20374
     17300       6539           -21639.828    0.00000           -21786.545  975.44444
     17400       6585           -21655.052    1.74294           -21785.740  972.69535
     17500       6625           -21635.957    0.00000           -21784.964  969.96647
     17600       6669           -21601.728    0.00000           -21784.022  967.28774
     17700       6721           -21607.807    0.00000           -21783.035  964.64048
     17800       6756           -21626.553    0.53136           -21782.160  961.99762
     17900       6787           -21629.628    0.00000           -21781.318  959.37275
     18000       6831           -21646.578    0.00000           -21780.561  956.75808
     18100       6875           -21648.347    0.00000           -21779.844  954.16020
     18200       6910           -21619.870    0.21156           -21779.075  951.59190
     18300       6953           -21623.094    0.60832           -21778.230  949.05704
     18400       6996           -21624.060    0.00000           -21777.403  946.54089
     18500       7036           -21636.850    0.00000           -21776.584  944.04478
     18600       7077           -21640.798    0.50588           -21775.859  941.55542
     18700       7122           -21664.753    0.00000           -21775.178  939.08107
     18800       7163           -21666.467    0.00000           -21774.605  936.61324
     18900       7201           -21660.754    2.09485           -21774.032  934.16532
     19000       7230           -21666.306    0.00000           -21773.453  931.73790
     19100       7264           -21665.060    0.00000           -21772.910  929.32591
     19200       7304           -21695.636    0.00000           -21772.424  926.92776
     19300       7344           -21668.397    0.00461           -21771.967  924.54516
     19400       7381           -21682.289    0.09944           -21771.515  922.18092
     19500       7415           -21685.539    0.00000           -21771.048  919.83642
     19600       7453           -21649.319    0.00000           -21770.505  917.51865
     19700       7498           -21627.185   -0.67359           -21769.806  915.23946
     19800       7536           -21600.201    0.00000           -21769.051  912.98740
     19900       7571           -21617.972    0.00000           -21768.262  910.75851
     20000       7606           -21599.131    0.00000           -21767.448  908.55148
     20100       7639           -21603.179    0.00000           -21766.639  906.36091
     20200       7677           -21599.300    0.00000           -21765.823  904.18880
     20300       7724           -21560.363    0.00000           -21764.944  902.04616
     20400       7765           -21559.178    0.76126           -21763.927  899.94951
     20500       7810           -21557.647   -0.15703           -21762.911  897.86918
     20600       7854           -21552.017    0.00000           -21761.942  895.79477
     20700       7897           -21546.942    0.00000           -21760.891  893.75590
     20800       7934           -21574.544   -1.17102           -21759.948  891.70850
     20900       7975           -21590.494   -0.04290           -21759.101  889.65674
     21000       8011           -21603.033    0.00000           -21758.275  887.61661
     21100       8053           -21603.804   -3.54252           -21757.556  885.57212
     21200       8101           -21599.455   -2.84222           -21756.768  883.55533
     21300       8142           -21610.409    1.40538           -21756.063  881.53885
     21400       8189           -21609.037    3.13994           -21755.417  879.52751
     21500       8230           -21601.572    0.00000           -21754.692  877.54398
     21600       8274           -21589.582    1.76880           -21753.968  875.57491
     21700       8314           -21594.949    0.00000           -21753.247  873.61954
     21800       8354           -21578.962   -0.05429           -21752.472  871.68844
     21900       8385           -21568.509   -0.44030           -21751.680  869.77490
     22000       8430           -21561.029    0.00000           -21750.837  867.88565
     22100       8465           -21549.880    0.00000           -21749.950  866.01984
     22200       8500           -21545.673    1.34686           -21749.029  864.17580
     22300       8545           -21537.596    1.95036           -21748.110  862.34481
     22400       8592           -21541.285    0.00000           -21747.166  860.53365
     22500       8637           -21516.451    3.67944           -21746.165  858.74997
     22600       8674           -21531.504    0.00000           -21745.185  856.97417
     22700       8710           -21538.080    0.00000           -21744.259  855.19794
     22800       8747           -21531.666    0.00000           -21743.309  853.44076
     22900       8782           -21518.618    0.00000           -21742.326  851.70475
     23000       8823           -21519.738    0.00000           -21741.344  849.98140
     23100       8854           -21536.731    0.00000           -21740.416  848.25657
     23200       8897           -21536.112    0.00000           -21739.534  846.53263
     23300       8933           -21505.071    1.99224           -21738.605  844.83300
     23400       8969           -21496.564    0.00000           -21737.594  843.16707
     23500       9018           -21483.219    0.00000           -21736.528  841.52955
     23600       9064           -21484.613   -8.78737           -21735.458  839.90517
     23700       9091           -21472.142    1.10012           -21734.380  838.29507
     23800       9141           -21458.629    0.00000           -21733.283  836.70275
     23900       9171           -21469.470    0.00000           -21732.160  835.13037
     24000       9202           -21458.076    0.00000           -21731.029  833.57209
     24100       9243           -21470.031   -0.78279           -21729.942  832.01160
     24200       9282           -21457.173    0.00000           -21728.799  830.48048
     24300       9327           -21444.203   -1.24789           -21727.685  828.95106
     24400       9365           -21446.474    0.00000           -21726.518  827.45083
     24500       9408           -21451.731    2.11152           -21725.380  825.95204
     24600       9463           -21459.672    0.00000           -21724.318  824.43902
     24700       9501           -21453.965    1.08740           -21723.251  822.93893
     24800       9541           -21446.403    0.00000           -21722.166  821.45524
     24900       9580           -21412.955    0.00000           -21721.028  820.00014
