
Results for 1 chain

              Energy            +/-          E_int            +/-          Steps       Accepted        Stepmax
--------------------------------------------------------------------------------------------------------------
  0 |  -8.327972e+04   2.065969e+01   0.000000e+00   0.000000e+00           2000         10.6 %       0.900000
