Energy of molecule 0 in gas-phase  -1574682.87964

Results for 1 chain

              Energy            +/-          E_int            +/-          Steps       Accepted        Stepmax
--------------------------------------------------------------------------------------------------------------
  0 |  -1.594668e+06   1.683963e+01  -4.983830e+02   3.511826e+00           2000         44.7 %       0.340464
