memory,400,m

nosym
geomtyp=xyz
geometry
4

N	-3.184860000000000e-01	-3.111720000000000e-01	-5.497230000000000e-01
H	-2.924630000000000e-01	-2.755020000000000e-01	4.652580000000000e-01
H	6.466720000000001e-01	-2.591190000000000e-01	-8.624670000000000e-01
H	-7.644629999999999e-01	5.491960000000000e-01	-8.545710000000000e-01


endg
set,charge=0
basis={
set,orbital
default,vdz
set,mp2fit
default,vdz/mp2fit
}

{grid;gridthr,1e-7,0,0;radial,log;angular,lebedev}

goto labelend
labelmethod
{ks,b3lyp}
ref_energy = energy
df-tddft,orb=2100.2,nexcit=5,ndump=1,dump=2500.2
labelend

{user,state=2,fdread=3,fdwrite=6}
