
 Primary working directories    : /scr/jonas
 Secondary working directories  : /scr/jonas
 Wavefunction directory         : /home/jonas/wfu/
 Main file repository           : /scr/jonas/

 SHA1      : 5b1d074a25eef39b04831e9568c159f1d25e52e7
 ARCHNAME  : Linux/x86_64
 FC        : /opt/intel_2011p10/composer_xe_2011_sp1.10.319/bin/intel64/ifort
 FCVERSION : 12.1.4
 BLASLIB   : -L/opt/intel_2011p10/composer_xe_2011_sp1.10.319/mkl/lib/intel64 -lmkl_intel_ilp64 -lmkl_sequential -lmkl_core
 id        : rmata

 Nodes     nprocs
 loki05       1

 Using customized tuning parameters: mindgm=1; mindgv=20; mindgc=4; mindgr=1; noblas=0; minvec=7
 default implementation of scratch files=df  

 memory,400,m
 
 geomtyp=xyz
 geometry
 6
 C,2.387748062045700e-01,7.327034987033900e-01,3.039584256817100e-01
 H,1.701152080016600e-01,1.722645150585700e-01,1.224215385459570e+00
 H,1.052107793337580e+00,4.116636529609100e-01,-3.254476015341300e-01
 H,-6.970508981067500e-01,8.056386748293101e-01,-2.218663590785400e-01
 F,-4.187348463373100e-01,-1.405862764189620e+00,-6.227191354079501e-01
 Cl,6.679359369002000e-01,2.510518422637400e+00,8.396112848792902e-01
 endg
 set,charge=-1
 basis=def2-tzvp
 
 {grid;gridthr,1e-7,0,0;radial,log;angular,lebedev}
 
 goto labelend
 labelmethod
 {ks,b3lyp,shiftc=-0.3;disp;grid;gridthr,1e-6,0,0;radial,log;angular,lebedev}    ! energy with default grid
 {ks,b3lyp,maxit=0;grid;gridthr,1e-7,0,0;radial,log;angular,lebedev}
 labelend
 
 {user,energy=2}

 Variables initialized (801), CPU time= 0.01 sec
 Commands  initialized (611), CPU time= 0.01 sec, 523 directives.
 Default parameters read. Elapsed time= 0.08 sec

 Checking input...
 Passed
1


                                         ***  PROGRAM SYSTEM MOLPRO  ***
                         Copyright, University College Cardiff Consultants Limited, 2008

                                    Version 2099.9 linked 4 Aug 2014 17:58:03 


 **********************************************************************************************************************************
 LABEL *                                                                                 
 Linux-3.2.0-67-generic/loki05(x86_64) 64 bit serial version                             DATE: 02-Jun-15          TIME: 12:11:51  
 **********************************************************************************************************************************

 SHA1:             5b1d074a25eef39b04831e9568c159f1d25e52e7

 Develop Directory: /home/jonas/software/molpro/pmc-pipe

 Included files:    c_pipemanager.c user.F
 **********************************************************************************************************************************
 SETTING GEOMTYP        =    XYZ
 SETTING CHARGE         =        -1.00000000                                  

 Variable memory set to  400000000 words,  buffer space   230000 words

 SETTING BASIS          =    DEF2-TZVP


 Recomputing integrals since basis changed


 Using spherical harmonics

 Library entry C      S def2-TZVP            selected for orbital group  1
 Library entry C      P def2-TZVP            selected for orbital group  1
 Library entry C      D def2-TZVP            selected for orbital group  1
 Library entry C      F def2-TZVP            selected for orbital group  1
 Library entry H      S def2-TZVP            selected for orbital group  2
 Library entry H      P def2-TZVP            selected for orbital group  2
 Library entry F      S def2-TZVP            selected for orbital group  3
 Library entry F      P def2-TZVP            selected for orbital group  3
 Library entry F      D def2-TZVP            selected for orbital group  3
 Library entry F      F def2-TZVP            selected for orbital group  3
 Library entry CL     S def2-TZVP            selected for orbital group  4
 Library entry CL     P def2-TZVP            selected for orbital group  4
 Library entry CL     D def2-TZVP            selected for orbital group  4
 Library entry CL     F def2-TZVP            selected for orbital group  4

1PROGRAM * SEWARD (Integral evaluation for generally contracted gaussian basis sets)     Author: Roland Lindh, 1990

 Geometry written to block  1 of record 700


 Point group  C1  



 ATOMIC COORDINATES

 NR  ATOM    CHARGE       X              Y              Z

   1  C       6.00    0.451218991    1.384608948    0.574398180
   2  H       1.00    0.321471154    0.325532756    2.313431804
   3  H       1.00    1.988195590    0.777931562   -0.615006837
   4  H       1.00   -1.317235297    1.522436456   -0.419266656
   5  F       9.00   -0.791294181   -2.656695603   -1.176768623
   6  CL     17.00    1.262215994    4.744192267    1.586635385

 Bond lengths in Bohr (Angstrom)

 1-2  2.040273224  1-3  2.035936839  1-4  2.033174070  1-6  3.601269273
     ( 1.079666090)     ( 1.077371374)     ( 1.075909380)     ( 1.905709623)

 Bond angles

  2-1-3  113.03404662   2-1-4  113.35594484   2-1-6  105.01028026   3-1-4  113.03642197

  3-1-6  105.79441920   4-1-6  105.66467869

 NUCLEAR CHARGE:                   35
 NUMBER OF PRIMITIVE AOS:         195
 NUMBER OF SYMMETRY AOS:          179
 NUMBER OF CONTRACTIONS:          117   ( 117A   )
 NUMBER OF CORE ORBITALS:           7   (   7A   )
 NUMBER OF VALENCE ORBITALS:       15   (  15A   )


 NUCLEAR REPULSION ENERGY   85.73820869


 Eigenvalues of metric

         1 0.145E-02 0.596E-02 0.623E-02 0.628E-02 0.105E-01 0.189E-01 0.208E-01 0.211E-01


 Contracted 2-electron integrals neglected if value below      1.0D-11
 AO integral compression algorithm  1   Integral accuracy      1.0D-11

     84.410 MB (compressed) written to integral file ( 36.7%)


 NUMBER OF SORTED TWO-ELECTRON INTEGRALS:   23829156.     BUFFER LENGTH:  32768
 NUMBER OF SEGMENTS:   2  SEGMENT LENGTH:   15997996      RECORD LENGTH: 524288

 Memory used in sort:      16.56 MW

 SORT1 READ    28726082. AND WROTE    17999302. INTEGRALS IN     53 RECORDS. CPU TIME:     0.39 SEC, REAL TIME:     0.77 SEC
 SORT2 READ    17999302. AND WROTE    23829156. INTEGRALS IN    322 RECORDS. CPU TIME:     0.53 SEC, REAL TIME:     0.72 SEC

 FILE SIZES:   FILE 1:    92.5 MBYTE,  FILE 4:   222.3 MBYTE,   TOTAL:    314.9 MBYTE

 OPERATOR DM      FOR CENTER  0  COORDINATES:    0.000000    0.000000    0.000000


 **********************************************************************************************************************************
 DATASETS  * FILE   NREC   LENGTH (MB)   RECORD NAMES
              1      19       75.59       500      610      700      900      950      970     1000      129      960     1100   
                                          VAR    BASINP    GEOM    SYMINP    ZMAT    AOBASIS   BASIS     P2S    ABASIS      S 
                                         1400     1410     1200     1210     1080     1600     1650     1300     1700   
                                           T        V       H0       H01     AOSYM     SMH    MOLCAS    ERIS     OPER   

 PROGRAMS   *        TOTAL       INT
 CPU TIMES  *         3.26      3.10
 REAL TIME  *         6.00 SEC
 DISK USED  *       315.25 MB      
 **********************************************************************************************************************************

 Create new grid at  1800.2
 Integration target accuracy:  0.10E-06
 Angular quadrature scheme: LEBEDEV      Threshold: 0.00E+00     Crowding factor:    0.00
 Minimum L=  0  0  0  0     Maximum L= 53 53 53 53
 Radial quadrature scheme: LOG          mr= 3     Scale=  1.00     Minimum quadrature orders:  20  25  25  30     Threshold: 0.00E+00
 Quadrature type=1     Voronoi partitioning: mmu= 10     Voronoi weight flags   2
 Use symmetry=F     Cache=T


 **********************************************************************************************************************************
 DATASETS  * FILE   NREC   LENGTH (MB)   RECORD NAMES
              1      19       75.59       500      610      700      900      950      970     1000      129      960     1100   
                                          VAR    BASINP    GEOM    SYMINP    ZMAT    AOBASIS   BASIS     P2S    ABASIS      S 
                                         1400     1410     1200     1210     1080     1600     1650     1300     1700   
                                           T        V       H0       H01     AOSYM     SMH    MOLCAS    ERIS     OPER   

              2       4        0.36       700     1000      520     1800   
                                         GEOM     BASIS   MCVARS    GRID   

 PROGRAMS   *        TOTAL      GRID       INT
 CPU TIMES  *         3.26      0.00      3.10
 REAL TIME  *         6.00 SEC
 DISK USED  *       315.25 MB      
 **********************************************************************************************************************************


 *** Long output written to logfile /scr/jonas/ref-multif-6-pmc/pipe_1.log ***


 GLOBAL ERROR fehler on processor   0                                         
