memory,400,m

geomtyp=xyz
geometry
6

C	2.187600740557100e-01	6.897258689809600e-01	2.738986752744100e-01
H	1.501262129241100e-01	1.459169274165300e-01	1.200702980734600e+00
H	1.046764807800650e+00	4.134412385705900e-01	-3.531628068687900e-01
H	-7.133185533093800e-01	8.357334493800601e-01	-2.394241544071000e-01
F	-3.746215063559900e-01	-1.369850829036470e+00	-5.523144164789400e-01
Cl	6.854369648848599e-01	2.511959344688290e+00	8.680517217457601e-01

endg
set,charge=-1
lattice,infile=lattice.lat

basis=def2-tzvp

{ks,b3lyp,shiftc=-0.3;disp}  ! energy with default grid 
show, energy(1)

{grid;gridthr,1e-7,0,0;radial,log;angular,lebedev}
{ks,b3lyp,maxit=0}

user
