
 Primary working directories    : /scr/jonas/
 Secondary working directories  : /scr/jonas/
 Wavefunction directory         : /home/jonas/wfu/
 Main file repository           : /scr/jonas/

 SHA1      : 5b1d074a25eef39b04831e9568c159f1d25e52e7
 ARCHNAME  : Linux/x86_64
 FC        : /opt/intel_2011p10/composer_xe_2011_sp1.10.319/bin/intel64/ifort
 FCVERSION : 12.1.4
 BLASLIB   : -L/opt/intel_2011p10/composer_xe_2011_sp1.10.319/mkl/lib/intel64 -lmkl_intel_ilp64 -lmkl_sequential -lmkl_core
 id        : rmata

 Nodes     nprocs
 loki01       1

 Using customized tuning parameters: mindgm=1; mindgv=20; mindgc=4; mindgr=1; noblas=0; minvec=7
 default implementation of scratch files=df  

 memory,400,m
 
 geomtyp=xyz
 geometry
 6
 C,2.187600740557100e-01,6.897258689809600e-01,2.738986752744100e-01
 H,1.501262129241100e-01,1.459169274165300e-01,1.200702980734600e+00
 H,1.046764807800650e+00,4.134412385705900e-01,-3.531628068687900e-01
 H,-7.133185533093800e-01,8.357334493800601e-01,-2.394241544071000e-01
 F,-3.746215063559900e-01,-1.369850829036470e+00,-5.523144164789400e-01
 Cl,6.854369648848599e-01,2.511959344688290e+00,8.680517217457601e-01
 endg
 set,charge=-1
 basis=def2-tzvp
 
 {grid;gridthr,1e-7,0,0;radial,log;angular,lebedev}
 
 goto labelend
 labelmethod
 {ks,b3lyp,shiftc=-0.3;disp;grid;gridthr,1e-6,0,0;radial,log;angular,lebedev}    ! energy with default grid
 {ks,b3lyp,maxit=0;grid;gridthr,1e-7,0,0;radial,log;angular,lebedev}
 labelend
 
 {user,energy=2}

 Variables initialized (801), CPU time= 0.01 sec
 Commands  initialized (611), CPU time= 0.01 sec, 523 directives.
 Default parameters read. Elapsed time= 0.07 sec

 Checking input...
 Passed
1


                                         ***  PROGRAM SYSTEM MOLPRO  ***
                         Copyright, University College Cardiff Consultants Limited, 2008

                                    Version 2099.9 linked 4 Aug 2014 17:58:03 


 **********************************************************************************************************************************
 LABEL *                                                                                 
 Linux-3.2.0-23-generic/loki01(x86_64) 64 bit serial version                             DATE: 12-May-15          TIME: 18:32:05  
 **********************************************************************************************************************************

 SHA1:             5b1d074a25eef39b04831e9568c159f1d25e52e7

 Develop Directory: /home/jonas/software/molpro/pmc-pipe

 Included files:    c_pipemanager.c user.F
 **********************************************************************************************************************************
 SETTING GEOMTYP        =    XYZ
 SETTING CHARGE         =        -1.00000000                                  

 Variable memory set to  400000000 words,  buffer space   230000 words

 SETTING BASIS          =    DEF2-TZVP


 Recomputing integrals since basis changed


 Using spherical harmonics

 Library entry C      S def2-TZVP            selected for orbital group  1
 Library entry C      P def2-TZVP            selected for orbital group  1
 Library entry C      D def2-TZVP            selected for orbital group  1
 Library entry C      F def2-TZVP            selected for orbital group  1
 Library entry H      S def2-TZVP            selected for orbital group  2
 Library entry H      P def2-TZVP            selected for orbital group  2
 Library entry F      S def2-TZVP            selected for orbital group  3
 Library entry F      P def2-TZVP            selected for orbital group  3
 Library entry F      D def2-TZVP            selected for orbital group  3
 Library entry F      F def2-TZVP            selected for orbital group  3
 Library entry CL     S def2-TZVP            selected for orbital group  4
 Library entry CL     P def2-TZVP            selected for orbital group  4
 Library entry CL     D def2-TZVP            selected for orbital group  4
 Library entry CL     F def2-TZVP            selected for orbital group  4

1PROGRAM * SEWARD (Integral evaluation for generally contracted gaussian basis sets)     Author: Roland Lindh, 1990

 Geometry written to block  1 of record 700


 Point group  C1  



 ATOMIC COORDINATES

 NR  ATOM    CHARGE       X              Y              Z

   1  C       6.00    0.413396628    1.303392998    0.517593484
   2  H       1.00    0.283697428    0.275743031    2.268999799
   3  H       1.00    1.978098811    0.781290712   -0.667380985
   4  H       1.00   -1.347976710    1.579307338   -0.452446081
   5  F       9.00   -0.707932050   -2.588642908   -1.043722986
   6  CL     17.00    1.295288144    4.746915215    1.640380022

 Bond lengths in Bohr (Angstrom)

 1-2  2.034775274  1-3  2.031021469  1-4  2.029665371  1-6  3.727764412
     ( 1.076756701)     ( 1.074770272)     ( 1.074052656)     ( 1.972647967)

 Bond angles

  2-1-3  114.92707202   2-1-4  115.13250420   2-1-6  102.84787003   3-1-4  115.12967790

  3-1-6  103.35211432   4-1-6  102.92512934

 NUCLEAR CHARGE:                   35
 NUMBER OF PRIMITIVE AOS:         195
 NUMBER OF SYMMETRY AOS:          179
 NUMBER OF CONTRACTIONS:          117   ( 117A   )
 NUMBER OF CORE ORBITALS:           7   (   7A   )
 NUMBER OF VALENCE ORBITALS:       15   (  15A   )


 NUCLEAR REPULSION ENERGY   85.72168047


 Eigenvalues of metric

         1 0.140E-02 0.601E-02 0.603E-02 0.697E-02 0.115E-01 0.187E-01 0.208E-01 0.210E-01


 Contracted 2-electron integrals neglected if value below      1.0D-11
 AO integral compression algorithm  1   Integral accuracy      1.0D-11

     85.459 MB (compressed) written to integral file ( 37.2%)


 NUMBER OF SORTED TWO-ELECTRON INTEGRALS:   23829156.     BUFFER LENGTH:  32768
 NUMBER OF SEGMENTS:   2  SEGMENT LENGTH:   15997996      RECORD LENGTH: 524288

 Memory used in sort:      16.56 MW

 SORT1 READ    28758702. AND WROTE    18159871. INTEGRALS IN     53 RECORDS. CPU TIME:     0.47 SEC, REAL TIME:     3.42 SEC
 SORT2 READ    18159871. AND WROTE    23829156. INTEGRALS IN    326 RECORDS. CPU TIME:     0.56 SEC, REAL TIME:     2.43 SEC

 FILE SIZES:   FILE 1:    93.6 MBYTE,  FILE 4:   222.3 MBYTE,   TOTAL:    315.9 MBYTE

 OPERATOR DM      FOR CENTER  0  COORDINATES:    0.000000    0.000000    0.000000


 **********************************************************************************************************************************
 DATASETS  * FILE   NREC   LENGTH (MB)   RECORD NAMES
              1      19       76.61       500      610      700      900      950      970     1000      129      960     1100   
                                          VAR    BASINP    GEOM    SYMINP    ZMAT    AOBASIS   BASIS     P2S    ABASIS      S 
                                         1400     1410     1200     1210     1080     1600     1650     1300     1700   
                                           T        V       H0       H01     AOSYM     SMH    MOLCAS    ERIS     OPER   

 PROGRAMS   *        TOTAL       INT
 CPU TIMES  *         4.46      4.33
 REAL TIME  *        17.80 SEC
 DISK USED  *       316.30 MB      
 **********************************************************************************************************************************

 Create new grid at  1800.2
 Integration target accuracy:  0.10E-06
 Angular quadrature scheme: LEBEDEV      Threshold: 0.00E+00     Crowding factor:    0.00
 Minimum L=  0  0  0  0     Maximum L= 53 53 53 53
 Radial quadrature scheme: LOG          mr= 3     Scale=  1.00     Minimum quadrature orders:  20  25  25  30     Threshold: 0.00E+00
 Quadrature type=1     Voronoi partitioning: mmu= 10     Voronoi weight flags   2
 Use symmetry=F     Cache=T


 **********************************************************************************************************************************
 DATASETS  * FILE   NREC   LENGTH (MB)   RECORD NAMES
              1      19       76.61       500      610      700      900      950      970     1000      129      960     1100   
                                          VAR    BASINP    GEOM    SYMINP    ZMAT    AOBASIS   BASIS     P2S    ABASIS      S 
                                         1400     1410     1200     1210     1080     1600     1650     1300     1700   
                                           T        V       H0       H01     AOSYM     SMH    MOLCAS    ERIS     OPER   

              2       4        0.36       700     1000      520     1800   
                                         GEOM     BASIS   MCVARS    GRID   

 PROGRAMS   *        TOTAL      GRID       INT
 CPU TIMES  *         4.47      0.01      4.33
 REAL TIME  *        19.63 SEC
 DISK USED  *       316.30 MB      
 **********************************************************************************************************************************


 *** Long output written to logfile /scr/jonas/sn2-bf-6-fep/pipeB2.log ***


 GLOBAL ERROR fehler on processor   0                                         
